<?xml version="1.0" encoding="utf-8"?>
<!-- Generator: Adobe Illustrator 23.0.2, SVG Export Plug-In . SVG Version: 6.00 Build 0)  -->
<svg version="1.1" xmlns="http://www.w3.org/2000/svg" xmlns:xlink="http://www.w3.org/1999/xlink" x="0px" y="0px"
	 viewBox="0 0 4110.24 5244.09" style="enable-background:new 0 0 4110.24 5244.09;" xml:space="preserve">
<style type="text/css">
	.st0{fill:#FFFFFF;}
	.st1{fill:none;}
	.st2{fill:#030405;}
</style>
<g id="BG">
	<rect class="st0" width="4110.24" height="5244.09"/>
</g>
<g id="_x30_01">
	<g>
		<rect x="0" y="0" class="st1" width="4110.24" height="5244.09"/>
		<g id="_x35__x5F_1_1_">
			<path class="st2" d="M1872.74,2226.18l-1.86,0.17l1.75,8.32l1.91-0.34L1872.74,2226.18z M1871.52,2227.74
				c0-0.28,0.27-0.51,0.6-0.51c0.33,0,0.6,0.23,0.6,0.51c0,0.28-0.27,0.5-0.6,0.5C1871.79,2228.25,1871.52,2228.03,1871.52,2227.74z
				 M1872.73,2231.01c-0.33,0-0.6-0.22-0.6-0.5c0-0.28,0.27-0.5,0.6-0.5c0.34,0,0.6,0.22,0.6,0.5
				C1873.33,2230.79,1873.06,2231.01,1872.73,2231.01z"/>
			<path class="st2" d="M1874.91,2235.99l-1.92,0.34l2.44,11.56l2.05-0.25L1874.91,2235.99z M1873.89,2238.53
				c0-0.28,0.27-0.5,0.6-0.5c0.33,0,0.6,0.23,0.6,0.5c0,0.28-0.27,0.51-0.6,0.51C1874.16,2239.03,1873.89,2238.8,1873.89,2238.53z
				 M1874.49,2241.33c0-0.28,0.27-0.51,0.6-0.51c0.34,0,0.6,0.23,0.6,0.51c0,0.28-0.27,0.51-0.6,0.51
				C1874.76,2241.83,1874.49,2241.61,1874.49,2241.33z M1874.98,2243.93c0-0.28,0.27-0.51,0.6-0.51c0.33,0,0.6,0.22,0.6,0.51
				c0,0.28-0.28,0.5-0.6,0.5C1875.25,2244.44,1874.98,2244.21,1874.98,2243.93z M1876.19,2246.96c-0.34,0-0.6-0.22-0.6-0.51
				c0-0.28,0.27-0.5,0.6-0.5c0.33,0,0.6,0.22,0.6,0.5C1876.79,2246.74,1876.52,2246.96,1876.19,2246.96z"/>
			<polygon class="st2" points="1884.27,2232.55 1884.27,2234.31 1874.91,2235.99 1872.99,2236.32 1863.5,2238.02 1863.5,2236.32 
				1872.63,2234.66 1874.54,2234.32 			"/>
			<path class="st2" d="M1899.67,2259.65l-1.86,0.17l1.75,8.32l1.91-0.34L1899.67,2259.65z M1898.46,2261.22
				c0-0.28,0.27-0.51,0.6-0.51c0.33,0,0.6,0.23,0.6,0.51c0,0.28-0.27,0.5-0.6,0.5C1898.72,2261.72,1898.46,2261.5,1898.46,2261.22z
				 M1899.66,2264.49c-0.33,0-0.6-0.22-0.6-0.51c0-0.28,0.27-0.5,0.6-0.5c0.34,0,0.6,0.22,0.6,0.5
				C1900.26,2264.26,1899.99,2264.49,1899.66,2264.49z"/>
			<path class="st2" d="M1901.84,2269.46l-1.92,0.34l2.44,11.56l2.05-0.24L1901.84,2269.46z M1900.82,2272c0-0.28,0.27-0.5,0.6-0.5
				c0.33,0,0.6,0.23,0.6,0.5c0,0.28-0.27,0.51-0.6,0.51C1901.09,2272.51,1900.82,2272.28,1900.82,2272z M1901.42,2274.8
				c0-0.28,0.27-0.51,0.6-0.51c0.34,0,0.6,0.23,0.6,0.51c0,0.28-0.27,0.5-0.6,0.5C1901.69,2275.31,1901.42,2275.09,1901.42,2274.8z
				 M1901.91,2277.4c0-0.28,0.27-0.5,0.6-0.5c0.33,0,0.6,0.22,0.6,0.5c0,0.28-0.28,0.51-0.6,0.51
				C1902.18,2277.91,1901.91,2277.68,1901.91,2277.4z M1903.12,2280.44c-0.34,0-0.6-0.22-0.6-0.51c0-0.28,0.27-0.5,0.6-0.5
				c0.33,0,0.6,0.22,0.6,0.5C1903.72,2280.21,1903.45,2280.44,1903.12,2280.44z"/>
			<polygon class="st2" points="1911.2,2266.02 1911.2,2267.78 1901.84,2269.46 1899.92,2269.8 1890.43,2271.5 1890.43,2269.79 
				1899.56,2268.14 1901.47,2267.79 			"/>
			<path class="st2" d="M1840.35,2221.29l-0.17,0.02l-1.45,1.27l1.52,7.2l1.91-0.34L1840.35,2221.29z M1839.14,2222.86
				c0-0.28,0.27-0.51,0.6-0.51c0.33,0,0.6,0.23,0.6,0.51c0,0.28-0.27,0.51-0.6,0.51C1839.4,2223.37,1839.14,2223.15,1839.14,2222.86
				z M1840.34,2226.13c-0.33,0-0.6-0.22-0.6-0.5c0-0.28,0.27-0.5,0.6-0.5c0.34,0,0.6,0.22,0.6,0.5
				C1840.94,2225.91,1840.67,2226.13,1840.34,2226.13z"/>
			<path class="st2" d="M1842.52,2231.1l-1.92,0.34l2.44,11.56l2.05-0.25L1842.52,2231.1z M1841.5,2233.65c0-0.28,0.27-0.5,0.6-0.5
				c0.33,0,0.6,0.23,0.6,0.5c0,0.28-0.27,0.51-0.6,0.51C1841.77,2234.15,1841.5,2233.92,1841.5,2233.65z M1842.1,2236.45
				c0-0.28,0.27-0.51,0.6-0.51c0.34,0,0.6,0.23,0.6,0.51c0,0.28-0.27,0.5-0.6,0.5C1842.37,2236.95,1842.1,2236.73,1842.1,2236.45z
				 M1842.59,2239.05c0-0.28,0.27-0.51,0.6-0.51c0.33,0,0.6,0.22,0.6,0.51c0,0.28-0.28,0.5-0.6,0.5
				C1842.86,2239.55,1842.59,2239.32,1842.59,2239.05z M1843.8,2242.08c-0.34,0-0.6-0.22-0.6-0.51c0-0.28,0.27-0.5,0.6-0.5
				c0.33,0,0.6,0.22,0.6,0.5C1844.4,2241.86,1844.13,2242.08,1843.8,2242.08z"/>
			<polygon class="st2" points="1851.88,2227.67 1851.88,2229.43 1842.52,2231.1 1840.6,2231.44 1831.12,2233.14 1831.12,2231.43 
				1840.25,2229.78 1842.15,2229.44 			"/>
			<path class="st2" d="M1867.22,2254.51l-1.86,0.17l1.75,8.32l1.91-0.34L1867.22,2254.51z M1866,2256.08c0-0.28,0.27-0.5,0.6-0.5
				c0.33,0,0.6,0.23,0.6,0.5c0,0.28-0.27,0.51-0.6,0.51C1866.27,2256.58,1866,2256.36,1866,2256.08z M1867.2,2259.34
				c-0.33,0-0.6-0.22-0.6-0.51c0-0.28,0.27-0.5,0.6-0.5c0.34,0,0.6,0.22,0.6,0.5C1867.8,2259.12,1867.54,2259.34,1867.2,2259.34z"/>
			<path class="st2" d="M1869.38,2264.32l-1.92,0.34l2.1,9.98l1.64,1.43l0.75-0.09L1869.38,2264.32z M1868.36,2266.86
				c0-0.28,0.27-0.51,0.6-0.51c0.33,0,0.6,0.23,0.6,0.51s-0.27,0.5-0.6,0.5C1868.63,2267.36,1868.36,2267.14,1868.36,2266.86z
				 M1868.97,2269.66c0-0.28,0.27-0.5,0.6-0.5c0.34,0,0.6,0.23,0.6,0.5c0,0.28-0.27,0.51-0.6,0.51
				C1869.24,2270.17,1868.97,2269.94,1868.97,2269.66z M1869.46,2272.26c0-0.28,0.27-0.51,0.6-0.51c0.33,0,0.6,0.22,0.6,0.51
				c0,0.28-0.28,0.51-0.6,0.51C1869.73,2272.77,1869.46,2272.54,1869.46,2272.26z M1870.67,2275.29c-0.34,0-0.6-0.22-0.6-0.5
				c0-0.28,0.27-0.5,0.6-0.5c0.33,0,0.6,0.22,0.6,0.5C1871.26,2275.07,1871,2275.29,1870.67,2275.29z"/>
			<polygon class="st2" points="1878.74,2260.88 1878.74,2262.64 1869.38,2264.32 1867.46,2264.66 1859.73,2266.04 1858.11,2264.63 
				1867.11,2262.99 1869.01,2262.65 			"/>
			<path class="st2" d="M1904.83,2231.22l-1.86,0.17l1.75,8.32l1.91-0.34L1904.83,2231.22z M1903.62,2232.79
				c0-0.28,0.27-0.51,0.6-0.51c0.33,0,0.6,0.23,0.6,0.51c0,0.28-0.27,0.51-0.6,0.51C1903.88,2233.3,1903.62,2233.08,1903.62,2232.79
				z M1904.82,2236.06c-0.33,0-0.6-0.22-0.6-0.51c0-0.28,0.27-0.5,0.6-0.5c0.34,0,0.6,0.22,0.6,0.5
				C1905.42,2235.84,1905.15,2236.06,1904.82,2236.06z"/>
			<path class="st2" d="M1907,2241.03l-1.92,0.34l2.44,11.56l2.05-0.24L1907,2241.03z M1905.98,2243.58c0-0.28,0.27-0.51,0.6-0.51
				c0.33,0,0.6,0.23,0.6,0.51c0,0.28-0.27,0.51-0.6,0.51C1906.25,2244.08,1905.98,2243.85,1905.98,2243.58z M1906.58,2246.38
				c0-0.28,0.27-0.51,0.6-0.51c0.34,0,0.6,0.23,0.6,0.51c0,0.28-0.27,0.51-0.6,0.51
				C1906.85,2246.88,1906.58,2246.66,1906.58,2246.38z M1907.07,2248.98c0-0.28,0.27-0.51,0.6-0.51c0.33,0,0.6,0.22,0.6,0.51
				c0,0.28-0.28,0.51-0.6,0.51C1907.34,2249.48,1907.07,2249.25,1907.07,2248.98z M1908.28,2252.01c-0.34,0-0.6-0.22-0.6-0.5
				c0-0.28,0.27-0.5,0.6-0.5c0.33,0,0.6,0.22,0.6,0.5C1908.88,2251.79,1908.61,2252.01,1908.28,2252.01z"/>
			<polygon class="st2" points="1916.36,2237.6 1916.36,2239.36 1907,2241.03 1905.08,2241.37 1895.59,2243.07 1895.59,2241.36 
				1904.72,2239.71 1906.63,2239.37 			"/>
			<path class="st2" d="M1939.36,2246.72l-0.8-0.7l-1.3,0.23l2.44,11.56l2.05-0.24L1939.36,2246.72z M1938.17,2248.45
				c0-0.28,0.27-0.51,0.6-0.51c0.33,0,0.6,0.23,0.6,0.51s-0.27,0.51-0.6,0.51C1938.44,2248.96,1938.17,2248.73,1938.17,2248.45z
				 M1938.77,2251.26c0-0.28,0.27-0.51,0.6-0.51c0.34,0,0.6,0.23,0.6,0.51c0,0.28-0.27,0.51-0.6,0.51
				C1939.04,2251.76,1938.77,2251.54,1938.77,2251.26z M1939.26,2253.86c0-0.28,0.27-0.51,0.6-0.51c0.33,0,0.6,0.22,0.6,0.51
				c0,0.28-0.28,0.51-0.6,0.51C1939.53,2254.36,1939.26,2254.13,1939.26,2253.86z M1940.47,2256.89c-0.34,0-0.6-0.22-0.6-0.5
				c0-0.28,0.27-0.5,0.6-0.5c0.33,0,0.6,0.22,0.6,0.5C1941.07,2256.67,1940.8,2256.89,1940.47,2256.89z"/>
			<polygon class="st2" points="1938.57,2246.02 1937.26,2246.25 1927.78,2247.95 1927.78,2246.24 1936.91,2244.59 1936.92,2244.59 
							"/>
			<path class="st2" d="M1878.2,2198.2l-1.86,0.17l1.75,8.32l1.91-0.34L1878.2,2198.2z M1876.99,2199.77c0-0.28,0.27-0.51,0.6-0.51
				c0.33,0,0.6,0.23,0.6,0.51c0,0.28-0.27,0.51-0.6,0.51C1877.26,2200.27,1876.99,2200.05,1876.99,2199.77z M1878.19,2203.04
				c-0.33,0-0.6-0.22-0.6-0.51c0-0.28,0.27-0.5,0.6-0.5c0.34,0,0.6,0.22,0.6,0.5C1878.79,2202.82,1878.53,2203.04,1878.19,2203.04z"
				/>
			<path class="st2" d="M1880.37,2208.01l-1.92,0.34l2.44,11.56l2.05-0.24L1880.37,2208.01z M1879.35,2210.55
				c0-0.28,0.27-0.51,0.6-0.51c0.33,0,0.6,0.23,0.6,0.51c0,0.28-0.27,0.51-0.6,0.51
				C1879.62,2211.06,1879.35,2210.83,1879.35,2210.55z M1879.96,2213.35c0-0.28,0.27-0.51,0.6-0.51c0.34,0,0.6,0.23,0.6,0.51
				c0,0.28-0.27,0.51-0.6,0.51C1880.22,2213.86,1879.96,2213.64,1879.96,2213.35z M1880.45,2215.96c0-0.28,0.27-0.51,0.6-0.51
				c0.33,0,0.6,0.22,0.6,0.51c0,0.28-0.28,0.51-0.6,0.51C1880.71,2216.46,1880.45,2216.23,1880.45,2215.96z M1881.66,2218.99
				c-0.34,0-0.6-0.22-0.6-0.5c0-0.28,0.27-0.5,0.6-0.5c0.33,0,0.6,0.22,0.6,0.5C1882.25,2218.76,1881.98,2218.99,1881.66,2218.99z"
				/>
			<polygon class="st2" points="1889.73,2204.58 1889.73,2206.34 1880.37,2208.01 1878.45,2208.35 1868.97,2210.05 1868.97,2208.34 
				1878.1,2206.69 1880,2206.34 			"/>
			<path class="st2" d="M1942.8,2207.63l-1.86,0.17l1.75,8.32l1.91-0.34L1942.8,2207.63z M1941.58,2209.2c0-0.28,0.27-0.51,0.6-0.51
				c0.33,0,0.6,0.23,0.6,0.51c0,0.28-0.27,0.51-0.6,0.51C1941.85,2209.71,1941.58,2209.48,1941.58,2209.2z M1942.78,2212.47
				c-0.33,0-0.6-0.22-0.6-0.5c0-0.28,0.27-0.5,0.6-0.5c0.34,0,0.6,0.22,0.6,0.5C1943.39,2212.25,1943.12,2212.47,1942.78,2212.47z"
				/>
			<path class="st2" d="M1944.96,2217.44l-1.92,0.34l1.09,5.18l2.53,2.2L1944.96,2217.44z M1943.95,2219.98c0-0.28,0.27-0.5,0.6-0.5
				c0.33,0,0.6,0.23,0.6,0.5c0,0.28-0.27,0.51-0.6,0.51C1944.21,2220.49,1943.95,2220.26,1943.95,2219.98z M1945.15,2223.29
				c-0.33,0-0.6-0.22-0.6-0.51c0-0.28,0.27-0.5,0.6-0.5c0.34,0,0.6,0.23,0.6,0.5C1945.75,2223.07,1945.48,2223.29,1945.15,2223.29z"
				/>
			<polygon class="st2" points="1954.32,2214.01 1954.32,2215.77 1944.96,2217.44 1943.04,2217.78 1939.02,2218.5 1937.39,2217.08 
				1942.69,2216.12 1944.6,2215.78 			"/>
			<path class="st2" d="M1915.82,2174.84l-1.86,0.17l1.75,8.32l1.91-0.34L1915.82,2174.84z M1914.6,2176.41
				c0-0.28,0.27-0.51,0.6-0.51c0.33,0,0.6,0.23,0.6,0.51c0,0.28-0.27,0.51-0.6,0.51C1914.87,2176.91,1914.6,2176.69,1914.6,2176.41z
				 M1915.8,2179.68c-0.33,0-0.6-0.22-0.6-0.51c0-0.28,0.27-0.5,0.6-0.5c0.34,0,0.6,0.22,0.6,0.5
				C1916.41,2179.45,1916.14,2179.68,1915.8,2179.68z"/>
			<path class="st2" d="M1917.99,2184.65l-1.92,0.34l2.44,11.57l2.05-0.25L1917.99,2184.65z M1916.97,2187.19
				c0-0.28,0.27-0.51,0.6-0.51c0.33,0,0.6,0.23,0.6,0.51c0,0.28-0.27,0.51-0.6,0.51C1917.24,2187.7,1916.97,2187.47,1916.97,2187.19
				z M1917.57,2189.99c0-0.28,0.27-0.51,0.6-0.51c0.34,0,0.6,0.23,0.6,0.51c0,0.28-0.27,0.51-0.6,0.51
				C1917.84,2190.5,1917.57,2190.28,1917.57,2189.99z M1918.06,2192.59c0-0.28,0.27-0.51,0.6-0.51c0.33,0,0.6,0.23,0.6,0.51
				c0,0.28-0.28,0.51-0.6,0.51C1918.33,2193.1,1918.06,2192.88,1918.06,2192.59z M1919.27,2195.62c-0.34,0-0.6-0.21-0.6-0.51
				c0-0.28,0.27-0.49,0.6-0.49c0.33,0,0.6,0.21,0.6,0.49C1919.87,2195.41,1919.6,2195.62,1919.27,2195.62z"/>
			<polygon class="st2" points="1927.35,2181.22 1927.35,2182.97 1917.99,2184.65 1916.06,2184.99 1906.58,2186.69 1906.58,2184.98 
				1915.71,2183.33 1917.62,2182.98 			"/>
			<polygon class="st2" points="1884.51,2170.96 1883.12,2169.75 1884.22,2169.65 			"/>
			<polygon class="st2" points="1895.75,2176.03 1895.75,2177.79 1892.91,2178.29 1891.25,2176.84 			"/>
			<path class="st2" d="M1949,2179.58l-1.86,0.17l1.75,8.32l1.91-0.34L1949,2179.58z M1947.78,2181.15c0-0.28,0.27-0.51,0.6-0.51
				c0.33,0,0.6,0.23,0.6,0.51c0,0.28-0.27,0.51-0.6,0.51C1948.05,2181.66,1947.78,2181.44,1947.78,2181.15z M1948.98,2184.42
				c-0.33,0-0.6-0.22-0.6-0.5c0-0.28,0.27-0.5,0.6-0.5c0.34,0,0.6,0.22,0.6,0.5C1949.59,2184.2,1949.32,2184.42,1948.98,2184.42z"/>
			<path class="st2" d="M1951.16,2189.4l-1.92,0.34l2.44,11.56l2.05-0.24L1951.16,2189.4z M1950.14,2191.94
				c0-0.28,0.27-0.51,0.6-0.51c0.33,0,0.6,0.23,0.6,0.51c0,0.28-0.27,0.5-0.6,0.5C1950.41,2192.44,1950.14,2192.21,1950.14,2191.94z
				 M1950.75,2194.74c0-0.28,0.27-0.5,0.6-0.5c0.34,0,0.6,0.23,0.6,0.5c0,0.28-0.27,0.51-0.6,0.51
				C1951.02,2195.24,1950.75,2195.02,1950.75,2194.74z M1951.24,2197.34c0-0.28,0.27-0.51,0.6-0.51c0.33,0,0.6,0.22,0.6,0.51
				c0,0.28-0.28,0.51-0.6,0.51C1951.51,2197.84,1951.24,2197.61,1951.24,2197.34z M1952.45,2200.37c-0.34,0-0.6-0.22-0.6-0.51
				c0-0.28,0.27-0.5,0.6-0.5c0.33,0,0.6,0.22,0.6,0.5C1953.04,2200.15,1952.78,2200.37,1952.45,2200.37z"/>
			<polygon class="st2" points="1960.52,2185.96 1960.52,2187.72 1951.16,2189.4 1949.24,2189.73 1939.76,2191.43 1939.76,2189.72 
				1948.89,2188.07 1950.79,2187.73 			"/>
			<path class="st2" d="M1980.84,2184.49l-1.86,0.17l1.75,8.32l1.91-0.34L1980.84,2184.49z M1979.62,2186.06
				c0-0.28,0.27-0.51,0.6-0.51c0.33,0,0.6,0.23,0.6,0.51c0,0.28-0.27,0.51-0.6,0.51
				C1979.89,2186.56,1979.62,2186.34,1979.62,2186.06z M1980.83,2189.33c-0.33,0-0.6-0.22-0.6-0.51c0-0.28,0.27-0.5,0.6-0.5
				c0.34,0,0.6,0.22,0.6,0.5C1981.43,2189.1,1981.16,2189.33,1980.83,2189.33z"/>
			<path class="st2" d="M1983.01,2194.3l-1.92,0.34l2.44,11.56l2.05-0.24L1983.01,2194.3z M1981.99,2196.84
				c0-0.28,0.27-0.51,0.6-0.51c0.33,0,0.6,0.23,0.6,0.51s-0.27,0.51-0.6,0.51C1982.26,2197.35,1981.99,2197.12,1981.99,2196.84z
				 M1982.59,2199.64c0-0.28,0.27-0.51,0.6-0.51c0.34,0,0.6,0.23,0.6,0.51c0,0.28-0.27,0.51-0.6,0.51
				C1982.86,2200.15,1982.59,2199.93,1982.59,2199.64z M1983.08,2202.24c0-0.28,0.27-0.51,0.6-0.51c0.33,0,0.6,0.22,0.6,0.51
				c0,0.28-0.28,0.51-0.6,0.51C1983.35,2202.75,1983.08,2202.52,1983.08,2202.24z M1984.29,2205.28c-0.34,0-0.6-0.22-0.6-0.5
				c0-0.28,0.27-0.5,0.6-0.5c0.33,0,0.6,0.22,0.6,0.5C1984.89,2205.05,1984.62,2205.28,1984.29,2205.28z"/>
			<polygon class="st2" points="1992.37,2190.86 1992.37,2192.62 1983.01,2194.3 1981.09,2194.64 1971.6,2196.34 1971.6,2194.63 
				1980.73,2192.98 1982.64,2192.63 			"/>
			<path class="st2" d="M1986.59,2156l-1.86,0.17l1.75,8.32l1.91-0.34L1986.59,2156z M1985.37,2157.58c0-0.28,0.27-0.51,0.6-0.51
				c0.33,0,0.6,0.23,0.6,0.51c0,0.28-0.27,0.5-0.6,0.5C1985.64,2158.08,1985.37,2157.86,1985.37,2157.58z M1986.57,2160.84
				c-0.33,0-0.6-0.22-0.6-0.51c0-0.27,0.27-0.5,0.6-0.5c0.34,0,0.6,0.23,0.6,0.5C1987.18,2160.62,1986.91,2160.84,1986.57,2160.84z"
				/>
			<path class="st2" d="M1988.75,2165.82l-1.92,0.34l2.44,11.57l2.05-0.24L1988.75,2165.82z M1987.74,2168.36
				c0-0.28,0.27-0.51,0.6-0.51c0.33,0,0.6,0.23,0.6,0.51c0,0.28-0.27,0.51-0.6,0.51C1988,2168.87,1987.74,2168.63,1987.74,2168.36z
				 M1988.34,2171.17c0-0.28,0.27-0.51,0.6-0.51c0.34,0,0.6,0.23,0.6,0.51c0,0.28-0.27,0.5-0.6,0.5
				C1988.61,2171.66,1988.34,2171.44,1988.34,2171.17z M1988.83,2173.76c0-0.28,0.27-0.5,0.6-0.5c0.33,0,0.6,0.22,0.6,0.5
				c0,0.28-0.28,0.51-0.6,0.51C1989.1,2174.26,1988.83,2174.04,1988.83,2173.76z M1990.04,2176.79c-0.34,0-0.6-0.21-0.6-0.51
				c0-0.28,0.27-0.49,0.6-0.49c0.33,0,0.6,0.21,0.6,0.49C1990.64,2176.58,1990.37,2176.79,1990.04,2176.79z"/>
			<polygon class="st2" points="1993.61,2163.2 1993.61,2164.94 1988.75,2165.82 1986.83,2166.15 1977.35,2167.85 1977.35,2166.14 
				1986.48,2164.49 1988.39,2164.15 			"/>
			<path class="st2" d="M1954.28,2151.53l-1.86,0.17l1.75,8.32l1.91-0.34L1954.28,2151.53z M1953.06,2153.1
				c0-0.28,0.27-0.51,0.6-0.51c0.33,0,0.6,0.23,0.6,0.51c0,0.28-0.27,0.5-0.6,0.5C1953.33,2153.6,1953.06,2153.38,1953.06,2153.1z
				 M1954.26,2156.36c-0.33,0-0.6-0.22-0.6-0.51c0-0.28,0.27-0.5,0.6-0.5c0.34,0,0.6,0.22,0.6,0.5
				C1954.87,2156.14,1954.6,2156.36,1954.26,2156.36z"/>
			<path class="st2" d="M1956.44,2161.34l-1.92,0.34l2.44,11.56l2.05-0.24L1956.44,2161.34z M1955.42,2163.88
				c0-0.28,0.27-0.51,0.6-0.51c0.33,0,0.6,0.23,0.6,0.51c0,0.28-0.27,0.51-0.6,0.51
				C1955.69,2164.38,1955.42,2164.16,1955.42,2163.88z M1956.03,2166.68c0-0.28,0.27-0.51,0.6-0.51c0.34,0,0.6,0.23,0.6,0.51
				c0,0.28-0.27,0.51-0.6,0.51C1956.3,2167.19,1956.03,2166.96,1956.03,2166.68z M1956.52,2169.28c0-0.28,0.27-0.51,0.6-0.51
				c0.33,0,0.6,0.22,0.6,0.51c0,0.28-0.28,0.51-0.6,0.51C1956.79,2169.79,1956.52,2169.56,1956.52,2169.28z M1957.73,2172.31
				c-0.34,0-0.6-0.22-0.6-0.51c0-0.28,0.27-0.5,0.6-0.5c0.33,0,0.6,0.22,0.6,0.5C1958.33,2172.09,1958.06,2172.31,1957.73,2172.31z"
				/>
			<polygon class="st2" points="1965.8,2157.9 1965.8,2159.66 1956.44,2161.34 1954.52,2161.68 1945.04,2163.37 1945.04,2161.67 
				1954.17,2160.01 1956.08,2159.67 			"/>
			<path class="st2" d="M1921.77,2146.22l-1.86,0.17l1.75,8.32l1.91-0.34L1921.77,2146.22z M1920.55,2147.79
				c0-0.28,0.27-0.51,0.6-0.51c0.33,0,0.6,0.23,0.6,0.51c0,0.28-0.27,0.51-0.6,0.51
				C1920.82,2148.29,1920.55,2148.07,1920.55,2147.79z M1921.75,2151.05c-0.33,0-0.6-0.22-0.6-0.51c0-0.28,0.27-0.5,0.6-0.5
				c0.34,0,0.6,0.22,0.6,0.5C1922.36,2150.83,1922.09,2151.05,1921.75,2151.05z"/>
			<path class="st2" d="M1923.93,2156.03l-1.92,0.34l2.44,11.56l2.05-0.24L1923.93,2156.03z M1922.91,2158.57
				c0-0.28,0.27-0.51,0.6-0.51c0.33,0,0.6,0.23,0.6,0.51c0,0.28-0.27,0.51-0.6,0.51
				C1923.18,2159.07,1922.91,2158.84,1922.91,2158.57z M1923.52,2161.37c0-0.28,0.27-0.51,0.6-0.51c0.34,0,0.6,0.23,0.6,0.51
				c0,0.28-0.27,0.51-0.6,0.51C1923.79,2161.87,1923.52,2161.65,1923.52,2161.37z M1924.01,2163.97c0-0.28,0.27-0.51,0.6-0.51
				c0.33,0,0.6,0.22,0.6,0.51c0,0.28-0.28,0.51-0.6,0.51C1924.28,2164.48,1924.01,2164.25,1924.01,2163.97z M1925.22,2167
				c-0.34,0-0.6-0.22-0.6-0.5c0-0.28,0.27-0.5,0.6-0.5c0.33,0,0.6,0.22,0.6,0.5C1925.81,2166.78,1925.55,2167,1925.22,2167z"/>
			<polygon class="st2" points="1933.29,2152.59 1933.29,2154.35 1923.93,2156.03 1922.01,2156.36 1912.53,2158.06 1912.53,2156.36 
				1921.66,2154.7 1923.57,2154.36 			"/>
			<path class="st2" d="M1889.91,2141.56l-1.86,0.17l1.75,8.32l1.91-0.34L1889.91,2141.56z M1888.7,2143.13
				c0-0.28,0.27-0.51,0.6-0.51c0.33,0,0.6,0.23,0.6,0.51c0,0.28-0.27,0.5-0.6,0.5C1888.97,2143.64,1888.7,2143.42,1888.7,2143.13z
				 M1889.9,2146.4c-0.33,0-0.6-0.22-0.6-0.51c0-0.28,0.27-0.5,0.6-0.5c0.34,0,0.6,0.22,0.6,0.5
				C1890.5,2146.18,1890.24,2146.4,1889.9,2146.4z"/>
			<path class="st2" d="M1892.08,2151.37l-1.92,0.34l2.44,11.56l2.05-0.24L1892.08,2151.37z M1891.06,2153.92
				c0-0.28,0.27-0.51,0.6-0.51c0.33,0,0.6,0.23,0.6,0.51c0,0.28-0.27,0.51-0.6,0.51
				C1891.33,2154.42,1891.06,2154.19,1891.06,2153.92z M1891.67,2156.72c0-0.28,0.27-0.51,0.6-0.51c0.34,0,0.6,0.23,0.6,0.51
				c0,0.28-0.27,0.51-0.6,0.51C1891.93,2157.22,1891.67,2157,1891.67,2156.72z M1892.16,2159.32c0-0.28,0.27-0.51,0.6-0.51
				c0.33,0,0.6,0.22,0.6,0.51c0,0.28-0.28,0.51-0.6,0.51C1892.42,2159.82,1892.16,2159.59,1892.16,2159.32z M1893.37,2162.35
				c-0.34,0-0.6-0.22-0.6-0.51c0-0.28,0.27-0.5,0.6-0.5c0.33,0,0.6,0.22,0.6,0.5C1893.96,2162.13,1893.69,2162.35,1893.37,2162.35z"
				/>
			<polygon class="st2" points="1901.44,2147.94 1901.44,2149.7 1892.08,2151.37 1890.16,2151.71 1880.68,2153.41 1880.68,2151.7 
				1889.81,2150.05 1891.71,2149.71 			"/>
			<path class="st2" d="M1895.7,2112.83l-1.86,0.17l1.75,8.32l1.91-0.34L1895.7,2112.83z M1894.48,2114.4c0-0.28,0.27-0.51,0.6-0.51
				c0.33,0,0.6,0.23,0.6,0.51c0,0.28-0.27,0.51-0.6,0.51C1894.75,2114.91,1894.48,2114.69,1894.48,2114.4z M1895.68,2117.67
				c-0.33,0-0.6-0.22-0.6-0.51c0-0.28,0.27-0.5,0.6-0.5c0.34,0,0.6,0.22,0.6,0.5C1896.29,2117.45,1896.02,2117.67,1895.68,2117.67z"
				/>
			<path class="st2" d="M1897.87,2122.64l-1.92,0.34l2.44,11.56l2.05-0.24L1897.87,2122.64z M1896.85,2125.19
				c0-0.28,0.27-0.51,0.6-0.51c0.33,0,0.6,0.23,0.6,0.51c0,0.28-0.27,0.51-0.6,0.51
				C1897.12,2125.69,1896.85,2125.46,1896.85,2125.19z M1897.45,2127.99c0-0.28,0.27-0.51,0.6-0.51c0.34,0,0.6,0.23,0.6,0.51
				c0,0.28-0.27,0.51-0.6,0.51C1897.72,2128.49,1897.45,2128.27,1897.45,2127.99z M1897.94,2130.59c0-0.28,0.27-0.51,0.6-0.51
				c0.33,0,0.6,0.22,0.6,0.51c0,0.28-0.28,0.51-0.6,0.51C1898.21,2131.09,1897.94,2130.86,1897.94,2130.59z M1899.15,2133.62
				c-0.34,0-0.6-0.22-0.6-0.51c0-0.28,0.27-0.5,0.6-0.5c0.33,0,0.6,0.22,0.6,0.5C1899.75,2133.4,1899.48,2133.62,1899.15,2133.62z"
				/>
			<polygon class="st2" points="1907.23,2119.21 1907.23,2120.97 1897.87,2122.64 1895.94,2122.98 1886.46,2124.68 1886.46,2122.97 
				1895.59,2121.32 1897.5,2120.98 			"/>
			<path class="st2" d="M1900.95,2084.5l-1.86,0.17l1.75,8.32l1.91-0.34L1900.95,2084.5z M1899.73,2086.07c0-0.28,0.27-0.5,0.6-0.5
				c0.33,0,0.6,0.23,0.6,0.5c0,0.28-0.27,0.51-0.6,0.51C1900,2086.58,1899.73,2086.35,1899.73,2086.07z M1900.93,2089.34
				c-0.33,0-0.6-0.22-0.6-0.51c0-0.28,0.27-0.5,0.6-0.5c0.34,0,0.6,0.22,0.6,0.5C1901.54,2089.12,1901.27,2089.34,1900.93,2089.34z"
				/>
			<path class="st2" d="M1903.12,2094.31l-1.92,0.34l2.44,11.56l2.05-0.24L1903.12,2094.31z M1902.1,2096.85
				c0-0.28,0.27-0.51,0.6-0.51c0.33,0,0.6,0.23,0.6,0.51c0,0.28-0.27,0.5-0.6,0.5C1902.37,2097.36,1902.1,2097.13,1902.1,2096.85z
				 M1902.7,2099.65c0-0.28,0.27-0.51,0.6-0.51c0.34,0,0.6,0.23,0.6,0.51c0,0.28-0.27,0.51-0.6,0.51
				C1902.97,2100.16,1902.7,2099.94,1902.7,2099.65z M1903.19,2102.26c0-0.28,0.27-0.51,0.6-0.51c0.33,0,0.6,0.22,0.6,0.51
				c0,0.28-0.28,0.51-0.6,0.51C1903.46,2102.76,1903.19,2102.53,1903.19,2102.26z M1904.4,2105.29c-0.34,0-0.6-0.22-0.6-0.51
				c0-0.28,0.27-0.5,0.6-0.5c0.33,0,0.6,0.22,0.6,0.5C1905,2105.07,1904.73,2105.29,1904.4,2105.29z"/>
			<polygon class="st2" points="1912.48,2090.88 1912.48,2092.64 1903.12,2094.31 1901.19,2094.65 1891.71,2096.35 1891.71,2094.64 
				1900.84,2092.99 1902.75,2092.64 			"/>
			<path class="st2" d="M1961.04,2035.22l-1.86,0.17l1.75,8.32l1.91-0.34L1961.04,2035.22z M1959.83,2036.8
				c0-0.28,0.27-0.51,0.6-0.51c0.33,0,0.6,0.23,0.6,0.51c0,0.28-0.27,0.5-0.6,0.5C1960.09,2037.3,1959.83,2037.08,1959.83,2036.8z
				 M1961.03,2040.06c-0.33,0-0.6-0.22-0.6-0.51c0-0.27,0.27-0.5,0.6-0.5c0.34,0,0.6,0.23,0.6,0.5
				C1961.63,2039.84,1961.36,2040.06,1961.03,2040.06z"/>
			<path class="st2" d="M1963.21,2045.03l-1.92,0.34l2.44,11.57l2.05-0.24L1963.21,2045.03z M1962.19,2047.58
				c0-0.28,0.27-0.51,0.6-0.51c0.33,0,0.6,0.23,0.6,0.51c0,0.28-0.27,0.51-0.6,0.51
				C1962.46,2048.09,1962.19,2047.85,1962.19,2047.58z M1962.79,2050.38c0-0.28,0.27-0.51,0.6-0.51c0.34,0,0.6,0.23,0.6,0.51
				c0,0.28-0.27,0.5-0.6,0.5C1963.06,2050.88,1962.79,2050.66,1962.79,2050.38z M1963.28,2052.98c0-0.28,0.27-0.5,0.6-0.5
				c0.33,0,0.6,0.23,0.6,0.5c0,0.28-0.28,0.51-0.6,0.51C1963.55,2053.48,1963.28,2053.26,1963.28,2052.98z M1964.49,2056.01
				c-0.34,0-0.6-0.21-0.6-0.51c0-0.28,0.27-0.49,0.6-0.49c0.33,0,0.6,0.21,0.6,0.49
				C1965.09,2055.79,1964.82,2056.01,1964.49,2056.01z"/>
			<polygon class="st2" points="1972.57,2041.61 1972.57,2043.36 1963.21,2045.03 1961.29,2045.37 1951.81,2047.07 1951.81,2045.36 
				1960.94,2043.71 1962.84,2043.37 			"/>
			<path class="st2" d="M1935.85,2008.8l-1.92,0.34l2.44,11.57l2.05-0.25L1935.85,2008.8z M1934.83,2011.34
				c0-0.28,0.26-0.51,0.6-0.51c0.33,0,0.6,0.23,0.6,0.51c0,0.28-0.27,0.51-0.6,0.51
				C1935.09,2011.84,1934.83,2011.61,1934.83,2011.34z M1935.43,2014.14c0-0.28,0.27-0.51,0.6-0.51c0.34,0,0.6,0.23,0.6,0.51
				c0,0.28-0.26,0.51-0.6,0.51C1935.7,2014.64,1935.43,2014.42,1935.43,2014.14z M1935.92,2016.74c0-0.28,0.27-0.51,0.6-0.51
				c0.33,0,0.6,0.22,0.6,0.51c0,0.28-0.28,0.51-0.6,0.51C1936.19,2017.25,1935.92,2017.02,1935.92,2016.74z M1937.13,2019.77
				c-0.34,0-0.6-0.21-0.6-0.51c0-0.28,0.27-0.49,0.6-0.49c0.33,0,0.6,0.21,0.6,0.49
				C1937.73,2019.56,1937.46,2019.77,1937.13,2019.77z"/>
			<polygon class="st2" points="1945.21,2005.36 1945.21,2007.12 1935.85,2008.8 1933.93,2009.13 1933.09,2009.29 1935.53,2007.12 
							"/>
			<polygon class="st2" points="1900.41,2005 1898.5,2005.35 1897.93,2002.66 1900.35,2004.77 			"/>
			<path class="st2" d="M1900.77,2006.67l-1.92,0.34l2.44,11.57l2.05-0.25L1900.77,2006.67z M1899.76,2009.21
				c0-0.28,0.27-0.51,0.6-0.51c0.33,0,0.6,0.23,0.6,0.51c0,0.28-0.27,0.51-0.6,0.51
				C1900.02,2009.72,1899.76,2009.49,1899.76,2009.21z M1900.36,2012.01c0-0.28,0.27-0.51,0.6-0.51c0.34,0,0.6,0.23,0.6,0.51
				c0,0.28-0.27,0.51-0.6,0.51C1900.63,2012.52,1900.36,2012.29,1900.36,2012.01z M1900.85,2014.61c0-0.28,0.27-0.51,0.6-0.51
				c0.33,0,0.6,0.23,0.6,0.51c0,0.28-0.28,0.51-0.6,0.51C1901.12,2015.12,1900.85,2014.9,1900.85,2014.61z M1902.06,2017.64
				c-0.34,0-0.6-0.21-0.6-0.51c0-0.28,0.27-0.49,0.6-0.49c0.33,0,0.6,0.21,0.6,0.49
				C1902.66,2017.43,1902.39,2017.64,1902.06,2017.64z"/>
			<polygon class="st2" points="1902.23,2006.41 1900.77,2006.67 1898.85,2007.01 1889.37,2008.71 1889.37,2007 1898.5,2005.35 
				1900.41,2005 1900.58,2004.97 			"/>
			<polygon class="st2" points="1939.29,2036.37 1939.29,2038.13 1937.13,2038.52 1937.13,2036.76 			"/>
			<polygon class="st2" points="1924.55,2039.05 1924.55,2040.76 1918.53,2041.84 1918.53,2040.14 			"/>
			<path class="st2" d="M1966.12,2006.25l-1.86,0.17l1.75,8.32l1.91-0.34L1966.12,2006.25z M1964.91,2007.82
				c0-0.28,0.27-0.51,0.6-0.51c0.33,0,0.6,0.23,0.6,0.51c0,0.28-0.27,0.51-0.6,0.51C1965.18,2008.32,1964.91,2008.1,1964.91,2007.82
				z M1966.11,2011.09c-0.33,0-0.6-0.22-0.6-0.51c0-0.28,0.27-0.5,0.6-0.5c0.34,0,0.6,0.22,0.6,0.5
				C1966.71,2010.86,1966.45,2011.09,1966.11,2011.09z"/>
			<path class="st2" d="M1968.29,2016.06l-1.92,0.34l2.44,11.56l2.05-0.24L1968.29,2016.06z M1967.27,2018.6
				c0-0.28,0.27-0.51,0.6-0.51c0.33,0,0.6,0.23,0.6,0.51c0,0.28-0.27,0.51-0.6,0.51C1967.54,2019.11,1967.27,2018.88,1967.27,2018.6
				z M1967.88,2021.4c0-0.28,0.27-0.51,0.6-0.51c0.34,0,0.6,0.23,0.6,0.51c0,0.28-0.27,0.51-0.6,0.51
				C1968.14,2021.91,1967.88,2021.68,1967.88,2021.4z M1968.37,2024c0-0.28,0.27-0.51,0.6-0.51c0.33,0,0.6,0.22,0.6,0.51
				c0,0.28-0.28,0.51-0.6,0.51C1968.63,2024.51,1968.37,2024.28,1968.37,2024z M1969.58,2027.03c-0.34,0-0.6-0.22-0.6-0.51
				c0-0.28,0.27-0.5,0.6-0.5c0.33,0,0.6,0.22,0.6,0.5C1970.17,2026.81,1969.9,2027.03,1969.58,2027.03z"/>
			<polygon class="st2" points="1977.65,2012.62 1977.65,2014.38 1968.29,2016.06 1966.37,2016.4 1956.89,2018.1 1956.89,2016.39 
				1966.02,2014.74 1967.92,2014.39 			"/>
			<path class="st2" d="M1895.71,2024.46l-1.86,0.17l1.74,8.32l1.91-0.34L1895.71,2024.46z M1894.49,2026.02
				c0-0.28,0.27-0.51,0.6-0.51c0.33,0,0.6,0.23,0.6,0.51c0,0.28-0.27,0.51-0.6,0.51
				C1894.76,2026.53,1894.49,2026.31,1894.49,2026.02z M1895.69,2029.29c-0.33,0-0.6-0.22-0.6-0.51c0-0.28,0.27-0.5,0.6-0.5
				c0.34,0,0.6,0.22,0.6,0.5C1896.3,2029.07,1896.03,2029.29,1895.69,2029.29z"/>
			<path class="st2" d="M1897.87,2034.27l-1.92,0.34l2.44,11.57l2.05-0.25L1897.87,2034.27z M1896.86,2036.81
				c0-0.28,0.26-0.51,0.6-0.51c0.33,0,0.6,0.23,0.6,0.51s-0.27,0.51-0.6,0.51C1897.12,2037.31,1896.86,2037.08,1896.86,2036.81z
				 M1897.46,2039.61c0-0.28,0.27-0.51,0.6-0.51c0.34,0,0.6,0.23,0.6,0.51c0,0.28-0.26,0.51-0.6,0.51
				C1897.73,2040.11,1897.46,2039.89,1897.46,2039.61z M1897.95,2042.21c0-0.28,0.27-0.51,0.6-0.51c0.33,0,0.6,0.23,0.6,0.51
				c0,0.28-0.28,0.51-0.6,0.51C1898.22,2042.72,1897.95,2042.49,1897.95,2042.21z M1899.16,2045.24c-0.34,0-0.6-0.21-0.6-0.51
				c0-0.28,0.27-0.49,0.6-0.49c0.33,0,0.6,0.21,0.6,0.49C1899.76,2045.03,1899.49,2045.24,1899.16,2045.24z"/>
			<polygon class="st2" points="1907.23,2030.84 1907.23,2032.59 1897.87,2034.27 1895.95,2034.6 1886.47,2036.3 1886.47,2034.6 
				1895.59,2032.94 1897.5,2032.6 			"/>
			<path class="st2" d="M1879.15,2062.67v2.93c0.21,0.08,0.36,0.27,0.36,0.47c0,0.21-0.15,0.38-0.36,0.46v1.68
				c0.08-0.03,0.16-0.05,0.25-0.05c0.33,0,0.6,0.23,0.6,0.51c0,0.28-0.28,0.51-0.6,0.51c-0.09,0-0.18-0.02-0.25-0.05v3.07l0.09,0.44
				l2.05-0.24L1879.15,2062.67z M1880.01,2071.7c-0.34,0-0.6-0.21-0.6-0.5c0-0.28,0.27-0.49,0.6-0.49c0.33,0,0.6,0.21,0.6,0.49
				C1880.61,2071.48,1880.34,2071.7,1880.01,2071.7z"/>
			<polygon class="st2" points="1888.09,2057.29 1888.09,2059.05 1879.15,2060.65 1879.15,2058.91 			"/>
			<path class="st2" d="M2100.5,1676.28l-1.86,0.17l1.75,8.32l1.91-0.34L2100.5,1676.28z M2099.29,1677.85
				c0-0.28,0.27-0.51,0.6-0.51c0.33,0,0.6,0.23,0.6,0.51c0,0.28-0.27,0.51-0.6,0.51
				C2099.56,1678.35,2099.29,1678.13,2099.29,1677.85z M2100.49,1681.11c-0.33,0-0.6-0.22-0.6-0.51c0-0.28,0.27-0.5,0.6-0.5
				c0.34,0,0.6,0.22,0.6,0.5C2101.09,1680.89,2100.83,1681.11,2100.49,1681.11z"/>
			<polygon class="st2" points="2103.5,1684.2 2101.01,1686.38 2100.75,1686.43 2094.37,1687.57 2092.81,1686.13 2100.4,1684.76 
				2102.3,1684.42 			"/>
			<polygon class="st2" points="2107.97,1655.49 2106.06,1655.84 2105.98,1655.48 2107.65,1654.05 			"/>
			<path class="st2" d="M2108.34,1657.16l-1.92,0.34l2.44,11.57l2.05-0.25L2108.34,1657.16z M2107.32,1659.7
				c0-0.28,0.26-0.51,0.6-0.51c0.33,0,0.6,0.23,0.6,0.51s-0.27,0.51-0.6,0.51C2107.58,1660.21,2107.32,1659.98,2107.32,1659.7z
				 M2107.93,1662.5c0-0.28,0.27-0.51,0.6-0.51c0.34,0,0.6,0.23,0.6,0.51c0,0.28-0.26,0.51-0.6,0.51
				C2108.2,1663.01,2107.93,1662.78,2107.93,1662.5z M2108.42,1665.1c0-0.28,0.27-0.51,0.6-0.51c0.33,0,0.6,0.23,0.6,0.51
				c0,0.28-0.28,0.51-0.6,0.51C2108.69,1665.61,2108.42,1665.39,2108.42,1665.1z M2109.63,1668.13c-0.34,0-0.6-0.21-0.6-0.51
				c0-0.28,0.27-0.49,0.6-0.49c0.33,0,0.6,0.21,0.6,0.49C2110.22,1667.92,2109.96,1668.13,2109.63,1668.13z"/>
			<polygon class="st2" points="2117.7,1653.73 2117.7,1655.48 2108.34,1657.16 2106.42,1657.5 2102.88,1658.13 2105.43,1655.95 
				2106.06,1655.84 2107.97,1655.49 			"/>
			<path class="st2" d="M1803.2,1842.87l-1.91,0.34l-1.75-8.32l0.83-0.08l0.38,0.97c-0.32,0.02-0.57,0.24-0.57,0.51
				c0,0.28,0.27,0.51,0.6,0.51c0.11,0,0.23-0.03,0.32-0.08l0.8,2.1c-0.1-0.15-0.3-0.26-0.53-0.26c-0.33,0-0.6,0.22-0.6,0.5
				c0,0.28,0.27,0.51,0.6,0.51c0.34,0,0.6-0.22,0.6-0.51c0-0.02,0-0.05-0.01-0.08l0.84,2.2v0.01L1803.2,1842.87z"/>
			<path class="st2" d="M1803.57,1844.54l-1.92,0.34l2.44,11.56l2.05-0.24L1803.57,1844.54z M1802.55,1847.08
				c0-0.28,0.27-0.51,0.6-0.51c0.33,0,0.6,0.23,0.6,0.51c0,0.28-0.27,0.51-0.6,0.51
				C1802.82,1847.58,1802.55,1847.35,1802.55,1847.08z M1803.16,1849.88c0-0.28,0.27-0.51,0.6-0.51c0.34,0,0.6,0.23,0.6,0.51
				c0,0.28-0.27,0.51-0.6,0.51C1803.43,1850.39,1803.16,1850.16,1803.16,1849.88z M1803.65,1852.48c0-0.28,0.27-0.51,0.6-0.51
				c0.33,0,0.6,0.22,0.6,0.51c0,0.28-0.28,0.51-0.6,0.51C1803.92,1852.99,1803.65,1852.76,1803.65,1852.48z M1804.86,1855.51
				c-0.34,0-0.6-0.22-0.6-0.51c0-0.28,0.27-0.5,0.6-0.5c0.33,0,0.6,0.22,0.6,0.5C1805.45,1855.29,1805.19,1855.51,1804.86,1855.51z"
				/>
			<polygon class="st2" points="1804.09,1844.45 1803.57,1844.54 1801.65,1844.88 1792.17,1846.57 1792.17,1844.87 1801.3,1843.21 
				1803.2,1842.87 1803.46,1842.82 			"/>
			<path class="st2" d="M1768.34,1829.45l-1.86,0.17l1.75,8.32l1.91-0.34L1768.34,1829.45z M1767.12,1831.02
				c0-0.28,0.27-0.51,0.6-0.51c0.33,0,0.6,0.23,0.6,0.51c0,0.28-0.27,0.51-0.6,0.51
				C1767.39,1831.53,1767.12,1831.31,1767.12,1831.02z M1768.32,1834.29c-0.33,0-0.6-0.22-0.6-0.51c0-0.28,0.27-0.5,0.6-0.5
				c0.34,0,0.6,0.22,0.6,0.5C1768.93,1834.07,1768.66,1834.29,1768.32,1834.29z"/>
			<path class="st2" d="M1770.69,1841.81c0-0.28-0.27-0.51-0.6-0.51c-0.28,0-0.5,0.15-0.57,0.35l-0.61-0.54l-0.32-1.52l1.92-0.34
				l0.89,4.03l-1.14-0.99C1770.5,1842.23,1770.69,1842.04,1770.69,1841.81z"/>
			<polygon class="st2" points="1779.86,1835.83 1779.86,1837.59 1770.5,1839.27 1768.58,1839.6 1767.41,1839.81 1765.77,1838.39 
				1768.23,1837.94 1770.14,1837.6 			"/>
			<path class="st2" d="M1807.32,1871.07l-1.86,0.17l0.47,2.23l0.01,0.01l1.8,1.58l0.57,0.51L1807.32,1871.07z M1806.71,1873.15
				c-0.34,0-0.6-0.22-0.6-0.51c0-0.28,0.27-0.51,0.6-0.51c0.33,0,0.6,0.23,0.6,0.51
				C1807.31,1872.92,1807.04,1873.15,1806.71,1873.15z"/>
			<polygon class="st2" points="1817.85,1879.38 1813.57,1880.15 1811.92,1878.71 1816.94,1877.79 1817.41,1879.01 			"/>
			<path class="st2" d="M1927.46,2117.74l-1.86,0.17l1.75,8.32l1.91-0.34L1927.46,2117.74z M1926.24,2119.31
				c0-0.28,0.27-0.51,0.6-0.51c0.33,0,0.6,0.23,0.6,0.51c0,0.28-0.27,0.51-0.6,0.51
				C1926.51,2119.81,1926.24,2119.59,1926.24,2119.31z M1927.45,2122.58c-0.33,0-0.6-0.22-0.6-0.51c0-0.28,0.27-0.5,0.6-0.5
				c0.34,0,0.6,0.22,0.6,0.5C1928.05,2122.35,1927.78,2122.58,1927.45,2122.58z"/>
			<path class="st2" d="M1929.63,2127.55l-1.92,0.34l2.44,11.56l2.05-0.24L1929.63,2127.55z M1928.61,2130.09
				c0-0.28,0.27-0.5,0.6-0.5c0.33,0,0.6,0.23,0.6,0.5c0,0.28-0.27,0.51-0.6,0.51C1928.88,2130.6,1928.61,2130.37,1928.61,2130.09z
				 M1929.21,2132.89c0-0.28,0.27-0.51,0.6-0.51c0.34,0,0.6,0.23,0.6,0.51c0,0.28-0.27,0.51-0.6,0.51
				C1929.48,2133.4,1929.21,2133.18,1929.21,2132.89z M1929.7,2135.49c0-0.28,0.27-0.51,0.6-0.51c0.33,0,0.6,0.22,0.6,0.51
				c0,0.28-0.28,0.51-0.6,0.51C1929.97,2136,1929.7,2135.77,1929.7,2135.49z M1930.91,2138.52c-0.34,0-0.6-0.22-0.6-0.51
				c0-0.28,0.27-0.5,0.6-0.5c0.33,0,0.6,0.22,0.6,0.5C1931.51,2138.3,1931.24,2138.52,1930.91,2138.52z"/>
			<polygon class="st2" points="1938.99,2124.11 1938.99,2125.87 1929.63,2127.55 1927.71,2127.89 1918.22,2129.59 1918.22,2127.88 
				1927.35,2126.23 1929.26,2125.88 			"/>
			<path class="st2" d="M1959.7,2122.26l-1.86,0.17l1.75,8.32l1.91-0.34L1959.7,2122.26z M1958.48,2123.83
				c0-0.28,0.27-0.51,0.6-0.51c0.33,0,0.6,0.23,0.6,0.51c0,0.28-0.27,0.51-0.6,0.51
				C1958.75,2124.34,1958.48,2124.11,1958.48,2123.83z M1959.68,2127.1c-0.33,0-0.6-0.22-0.6-0.51c0-0.28,0.27-0.5,0.6-0.5
				c0.34,0,0.6,0.22,0.6,0.5C1960.28,2126.88,1960.02,2127.1,1959.68,2127.1z"/>
			<path class="st2" d="M1961.86,2132.07l-1.92,0.34l1.48,7l1.73-1.52L1961.86,2132.07z M1960.84,2134.61c0-0.28,0.27-0.51,0.6-0.51
				c0.33,0,0.6,0.23,0.6,0.51c0,0.28-0.27,0.51-0.6,0.51C1961.11,2135.12,1960.84,2134.89,1960.84,2134.61z M1962.04,2137.92
				c-0.33,0-0.6-0.22-0.6-0.5c0-0.28,0.27-0.51,0.6-0.51c0.34,0,0.6,0.23,0.6,0.51C1962.65,2137.7,1962.38,2137.92,1962.04,2137.92z
				"/>
			<polygon class="st2" points="1971.22,2128.64 1971.22,2130.4 1961.86,2132.07 1959.94,2132.41 1950.46,2134.11 1950.46,2132.4 
				1959.59,2130.75 1961.49,2130.4 			"/>
			<path class="st2" d="M2031.13,1582.61v1.75l-6.8,1.22c-0.47-0.51-0.96-0.99-1.45-1.48L2031.13,1582.61z"/>
			<path class="st2" d="M2020.19,1580.56c0-0.27-0.27-0.5-0.6-0.5c-0.31,0-0.57,0.21-0.59,0.45c-0.16-0.15-0.32-0.28-0.47-0.42
				l-0.42-2l0.29-0.24c0.02,0.25,0.28,0.45,0.6,0.45c0.33,0,0.6-0.22,0.6-0.5c0-0.27-0.24-0.48-0.54-0.51l0.67-0.56l1.21,5.5
				c-0.43-0.41-0.86-0.8-1.3-1.17C2019.95,1581.05,2020.19,1580.84,2020.19,1580.56z"/>
		</g>
	</g>
</g>
</svg>
