<?xml version="1.0" encoding="utf-8"?>
<!-- Generator: Adobe Illustrator 23.0.2, SVG Export Plug-In . SVG Version: 6.00 Build 0)  -->
<svg version="1.1" xmlns="http://www.w3.org/2000/svg" xmlns:xlink="http://www.w3.org/1999/xlink" x="0px" y="0px"
	 viewBox="0 0 4110.24 5244.09" style="enable-background:new 0 0 4110.24 5244.09;" xml:space="preserve">
<style type="text/css">
	.st0{fill:#FFFFFF;}
	.st1{fill:none;}
	.st2{fill:#C58B55;}
	.st3{fill:#A47546;}
	.st4{fill:#DFA270;}
	.st5{fill:#FDD39E;}
	.st6{fill:#CC915C;}
	.st7{fill:#F8BA85;}
	.st8{fill:url(#SVGID_1_);}
	.st9{fill:#A77848;}
	.st10{fill:url(#SVGID_2_);}
	.st11{fill:url(#SVGID_3_);}
	.st12{fill:url(#SVGID_4_);}
	.st13{fill:#A87949;}
	.st14{fill:url(#SVGID_5_);}
	.st15{fill:url(#SVGID_6_);}
	.st16{fill:url(#SVGID_7_);}
	.st17{fill:url(#SVGID_8_);}
	.st18{fill:url(#SVGID_9_);}
	.st19{fill:#DFA370;}
	.st20{fill:#FDD49E;}
	.st21{fill:#A67747;}
	.st22{fill:url(#SVGID_10_);}
	.st23{fill:url(#SVGID_11_);}
	.st24{fill:url(#SVGID_12_);}
	.st25{fill:url(#SVGID_13_);}
	.st26{fill:url(#SVGID_14_);}
	.st27{fill:url(#SVGID_15_);}
	.st28{fill:url(#SVGID_16_);}
	.st29{fill:url(#SVGID_17_);}
	.st30{fill:url(#SVGID_18_);}
	.st31{fill:#BB8550;}
	.st32{fill:url(#SVGID_19_);}
	.st33{fill:#99683E;}
	.st34{fill:url(#SVGID_20_);}
	.st35{fill:url(#SVGID_21_);}
	.st36{fill:url(#SVGID_22_);}
	.st37{fill:url(#SVGID_23_);}
	.st38{fill:url(#SVGID_24_);}
	.st39{fill:url(#SVGID_25_);}
	.st40{fill:url(#SVGID_26_);}
	.st41{fill:#A07444;}
	.st42{fill:url(#SVGID_27_);}
	.st43{fill:url(#SVGID_28_);}
	.st44{fill:url(#SVGID_29_);}
	.st45{fill:url(#SVGID_30_);}
	.st46{fill:url(#SVGID_31_);}
	.st47{fill:url(#SVGID_32_);}
	.st48{fill:url(#SVGID_33_);}
	.st49{fill:url(#SVGID_34_);}
	.st50{fill:url(#SVGID_35_);}
	.st51{fill:url(#SVGID_36_);}
	.st52{fill:url(#SVGID_37_);}
	.st53{fill:url(#SVGID_38_);}
	.st54{fill:#A07243;}
	.st55{fill:url(#SVGID_39_);}
	.st56{fill:url(#SVGID_40_);}
	.st57{fill:url(#SVGID_41_);}
	.st58{fill:url(#SVGID_42_);}
	.st59{fill:url(#SVGID_43_);}
	.st60{fill:url(#SVGID_44_);}
	.st61{fill:url(#SVGID_45_);}
	.st62{fill:url(#SVGID_46_);}
	.st63{fill:#7D4E24;}
	.st64{fill:#F1C490;}
	.st65{fill:url(#SVGID_47_);}
	.st66{fill:url(#SVGID_48_);}
	.st67{fill:url(#SVGID_49_);}
	.st68{fill:url(#SVGID_50_);}
	.st69{fill:url(#SVGID_51_);}
	.st70{fill:url(#SVGID_52_);}
	.st71{fill:url(#SVGID_53_);}
	.st72{fill:url(#SVGID_54_);}
	.st73{fill:url(#SVGID_55_);}
	.st74{fill:url(#SVGID_56_);}
</style>
<g id="BG">
	<rect class="st0" width="4110.24" height="5244.09"/>
</g>
<g id="_x30_01">
	<g>
		<rect x="0" y="0" class="st1" width="4110.24" height="5244.09"/>
		<g id="_x36__x5F_1">
			<path class="st2" d="M2237.23,2981.77c-3.49,2.24-8.01,3.66-12.77,3.66c-1.86,0-3.67-0.21-5.38-0.59
				c-8.76-1.94-15.2-8.53-15.2-16.35c0-0.6,0.04-1.19,0.11-1.76c0.43,6.72,5.62,12.4,12.85,14.8c2.37,0.79,4.97,1.22,7.7,1.22
				c3.94,0,7.79-0.95,10.92-2.52L2237.23,2981.77z"/>
			<path class="st3" d="M2235.46,2980.23c-3.13,1.58-6.98,2.52-10.92,2.52c-2.72,0-5.33-0.44-7.7-1.22
				c-7.23-2.4-12.42-8.08-12.85-14.8c-0.02-0.3-0.03-0.6-0.03-0.91c0-0.98,0.1-1.95,0.31-2.89c0.02-0.15,0.05-0.31,0.09-0.45
				c0.37-1.5,0.98-2.93,1.8-4.26v-0.01c0.44-0.72,1.03-1.53,1.58-2.18l1.39,1.21L2235.46,2980.23z"/>
			<path class="st2" d="M1327.79,2187.84c-3.49,2.24-7.88,3.57-12.64,3.57c-1.86,0-3.67-0.21-5.38-0.59
				c-8.76-1.94-15.2-8.53-15.2-16.35c0-0.6,0.04-1.19,0.11-1.76c0.43,6.72,5.62,12.4,12.85,14.8c2.37,0.79,4.97,1.22,7.7,1.22
				c3.94,0,7.61-0.91,10.74-2.49L1327.79,2187.84z"/>
			<path class="st3" d="M1325.99,2186.26c-3.13,1.58-6.8,2.49-10.74,2.49c-2.72,0-5.33-0.44-7.7-1.22
				c-7.23-2.4-12.42-8.08-12.85-14.8c-0.02-0.3-0.03-0.6-0.03-0.91c0-0.98,0.1-1.95,0.31-2.89c0.02-0.15,0.05-0.31,0.09-0.45
				c0.37-1.5,0.98-2.93,1.8-4.26v-0.01c0.44-0.72,0.94-1.41,1.49-2.06l1.35,1.18L1325.99,2186.26z"/>
			<polygon class="st3" points="2765.8,2433.74 2765.81,2422.28 2764.88,2418.38 2758.33,2406.65 2799.43,2370.77 2803.4,2369.16 
				2820.67,2384.41 			"/>
			<polygon class="st4" points="2701.67,2456.13 2701.67,2472.01 2684.43,2486.77 2670.01,2486.77 2670.01,2483.76 			"/>
			<polygon class="st5" points="2667.99,2485.52 2670.01,2486.77 2670.01,2483.76 			"/>
			<polygon class="st5" points="2706.42,2451.98 2711.81,2487.61 2711.55,2513.6 2709.92,2513.81 2700.28,2485.79 2700.28,2473.19 
				2701.67,2472.01 2701.67,2456.13 			"/>
			<polygon class="st6" points="2709.32,2449.44 2714.57,2485.25 2711.81,2487.61 2706.42,2451.98 			"/>
			<polygon class="st7" points="2724.57,2436.13 2742.3,2431.47 2742.3,2435.57 2718.23,2441.67 			"/>
			<polygon class="st3" points="2739.1,2423.44 2745.23,2428.67 2742.3,2431.47 2724.57,2436.13 			"/>
			<polygon class="st4" points="2742.3,2435.57 2742.3,2431.47 2745.23,2428.67 2745.23,2432.38 			"/>
			<path class="st5" d="M2732.67,2443.73l-5.13-4.42l5.11-1.29c-0.93,0.66-0.99,2.95-0.11,5.4
				C2732.58,2443.52,2732.63,2443.62,2732.67,2443.73z"/>
			<linearGradient id="SVGID_1_" gradientUnits="userSpaceOnUse" x1="2762.2356" y1="2463.9907" x2="2760.7644" y2="2462.2983">
				<stop  offset="0" style="stop-color:#A47546"/>
				<stop  offset="0.0317" style="stop-color:#AA794A"/>
				<stop  offset="0.1984" style="stop-color:#C08A5A"/>
				<stop  offset="0.3879" style="stop-color:#D29866"/>
				<stop  offset="0.6177" style="stop-color:#DCA06E"/>
				<stop  offset="1" style="stop-color:#DFA270"/>
			</linearGradient>
			<path class="st8" d="M2763.17,2460.53L2763.17,2460.53c0,2.11-0.47,3.2-1.1,3.57l-0.35,0.23l-1.97,1.34
				c0.33-0.18,0.62-0.55,0.8-1.21c0.15-0.53,0.24-1.24,0.23-2.19L2763.17,2460.53z"/>
			<path class="st5" d="M2763.17,2460.53l-0.04,5.6l-1.4-1.79l0.35-0.23C2762.7,2463.73,2763.17,2462.65,2763.17,2460.53z"/>
			<path class="st4" d="M2820.67,2384.41v66.8l-32.3,28.1l-0.02-7.14c0.47-18.28-6.55-21.57-12.88-20.88c-0.01,0-0.01,0-0.01,0
				c-3.25,0.35-6.31,1.74-8.08,2.69c-0.98,0.53-1.57,0.92-1.57,0.92v9.25l-2.68,1.97l0.04-5.59l-2.37,1.75l-0.27-35.57l5.28-4.42
				v11.46L2820.67,2384.41z"/>
			<polygon class="st9" points="2752.37,2411.86 2760.52,2426.7 2765.81,2422.28 2764.88,2418.38 2758.33,2406.65 			"/>
			<path class="st5" d="M2788.37,2479.32l-1.84,1.6l-20.72-17.92v-8.08c0,0,0.59-0.39,1.57-0.92v0.01l19.56,16.95l1.41,1.22
				L2788.37,2479.32z"/>
			<path class="st3" d="M2786.94,2470.95l-19.56-16.95v-0.01c1.78-0.95,4.84-2.34,8.08-2.69c0,0,0,0,0.01,0
				C2776.2,2451.3,2787.33,2451.64,2786.94,2470.95z"/>
			<linearGradient id="SVGID_2_" gradientUnits="userSpaceOnUse" x1="2779.5063" y1="2464.4956" x2="2786.6125" y2="2456.321">
				<stop  offset="0" style="stop-color:#DFA270"/>
				<stop  offset="1" style="stop-color:#A47546"/>
			</linearGradient>
			<path class="st10" d="M2788.34,2472.18l-1.41-1.22c0.4-19.32-10.74-19.65-11.47-19.65
				C2781.79,2450.61,2788.81,2453.9,2788.34,2472.18z"/>
			<path class="st3" d="M2786.53,2480.92l-1.62,1.41c-7.73-4.27-8.71-9.96-8.77-10.37c0-0.02,0-0.02,0-0.02l8.3,7.18
				L2786.53,2480.92z"/>
			<linearGradient id="SVGID_3_" gradientUnits="userSpaceOnUse" x1="2776.1367" y1="2477.6953" x2="2784.907" y2="2477.6953">
				<stop  offset="0" style="stop-color:#A47546"/>
				<stop  offset="1" style="stop-color:#FDD39E"/>
			</linearGradient>
			<path class="st11" d="M2784.91,2482.33l-1.28,1.11c-7.37-3.93-7.49-11.01-7.49-11.48
				C2776.2,2472.36,2777.18,2478.06,2784.91,2482.33z"/>
			<linearGradient id="SVGID_4_" gradientUnits="userSpaceOnUse" x1="2795.1624" y1="2377.1985" x2="2807.6292" y2="2377.1985">
				<stop  offset="0" style="stop-color:#A47546"/>
				<stop  offset="1" style="stop-color:#FDD39E"/>
			</linearGradient>
			<path class="st12" d="M2807.63,2381.31c0,0.54-0.05,1.06-0.14,1.58c-0.86-4.79-5.55-8.45-11.22-8.45c-0.38,0-0.75,0.02-1.11,0.05
				l3.44-3C2803.76,2372.44,2807.63,2376.48,2807.63,2381.31z"/>
			<path class="st4" d="M2793.44,2376v15.02c-4.2-0.95-7.47-3.97-8.32-7.76L2793.44,2376z"/>
			<path class="st0" d="M2807.49,2382.9c-0.86,4.78-5.56,8.44-11.22,8.44c-0.98,0-1.93-0.11-2.83-0.31V2376l1.72-1.5
				c0.36-0.04,0.73-0.05,1.11-0.05C2801.94,2374.45,2806.63,2378.11,2807.49,2382.9z"/>
			<polygon class="st4" points="2709.32,2449.44 2718.23,2441.67 2727.54,2439.31 2731.58,2442.79 2731.58,2445.24 2711.38,2462.88 
							"/>
			<polygon class="st6" points="2739.52,2449.65 2741.55,2461.82 2744.17,2459.51 2743.16,2452.78 			"/>
			<polygon class="st4" points="2741.84,2485.92 2741.55,2461.82 2744.17,2459.51 2744.17,2483.77 			"/>
			<path class="st5" d="M2741.84,2485.91l-1.73,0l-10.41-27.95v-11.09l1.88-1.64v-2.46l1.09,0.93v0.01c0.97,2.46,2.59,4.09,3.7,3.69
				l0.24-0.13l0.09-0.08l2.82,2.43l2.02,12.18L2741.84,2485.91z"/>
			<path class="st5" d="M2760.79,2462.27c0.01,0.95-0.08,1.66-0.23,2.19c-0.18,0.66-0.47,1.03-0.8,1.21
				c-0.19,0.1-0.39,0.14-0.59,0.14c-0.87,0-1.76-0.73-1.76-0.73l-3.13-2.7c0.02-0.01,0.04-0.02,0.05-0.03h0.01l2.97-1.89v-0.01
				c1.04-0.54,1.15-2.93,0.22-5.47c-0.96-2.63-2.66-4.43-3.81-4.01l-0.2,0.1l-2.98,1.9l-0.08,0.05l-0.03,0.02
				c-0.99,0.6-1.07,2.94-0.17,5.44c0.08,0.24,0.18,0.47,0.28,0.7l-13.83-11.92l2.86-1.84c1.04-0.54,1.15-2.93,0.22-5.47
				c-0.5-1.36-1.19-2.5-1.91-3.23l4.4-1.12l2.93-3.19v-3.71l-6.12-5.23l3.3-2.88c0.94,1.62,2.14,2.59,3.01,2.27
				c0.07-0.02,0.13-0.05,0.19-0.1c0.02-0.01,0.04-0.02,0.05-0.04h0.01l2.97-1.88v-0.01c1.04-0.54,1.15-2.93,0.22-5.47
				c-0.04-0.1-0.08-0.2-0.11-0.3l3.64-3.17l8.15,14.84L2760.79,2462.27z"/>
			<polygon class="st4" points="2711.55,2513.6 2711.81,2487.61 2714.57,2485.25 2714.29,2511.09 			"/>
			<path class="st3" d="M2555.55,2676.47v-3.6c0-7.15-3.24-13.63-8.49-18.41v-13.03c0.38,0.35,1.03,0.58,1.75,0.58
				c1.16,0,2.11-0.59,2.11-1.32v-2l0.63-0.93l15.73,14.3l3.13-2.76v-6.31c0-3.21-1.74-5.95-2.34-6.8c-0.12-0.18-0.2-0.28-0.2-0.28
				l-8.44-11.56v-0.01c1.54-3.15,2.38-6.57,2.38-10.13c0-0.15,0-0.29-0.01-0.44c5.67-6.39,9.01-14.22,9.01-22.68v-9.94
				c0-0.31-0.01-0.63-0.02-0.93v-0.07c-0.09-2.93-0.58-5.79-1.44-8.53l12.04-10.51v3.94c0,4.39,3.05,8.18,7.48,9.99v1.48l-1.75,1.32
				c0,0-0.19,0.11-0.38,0.31c-0.2,0.19-0.39,0.45-0.4,0.74l0.25,9.17c-1.55,0.02-2.79,1.09-3.44,1.71l-2.79,2.49
				c-0.65,0.54-0.98,1.26-0.98,1.26l-5.25,11.24v8.27l23.18,20.07l3.47-3.05v-7.85l-3.66-13.52l1.26-1.01l14.32,12.4v-7.85h0.01
				v7.84l3.47-3.05v-7.85h-0.01l-4.28-15.82l1.75-3.15c0.33-0.53,0.56-1.2,0.67-1.95c0.26-0.22,0.48-0.49,0.67-0.8l24.86,21.07
				l-85.09,74.02C2555.28,2680.59,2555.55,2678.56,2555.55,2676.47z"/>
			<polygon class="st13" points="2608.61,2537.37 2646.5,2602.72 2649.57,2600.06 2611.53,2534.82 			"/>
			<path class="st3" d="M2570.8,2580.23v-0.07c-0.09-2.93-0.58-5.79-1.44-8.53l-10.04,8.76c0,0.25-0.01,0.51-0.02,0.77
				c-0.01,0.15-0.01,0.28-0.02,0.43c-0.01,0.34-0.04,0.67-0.08,1c-0.02,0.31-0.06,0.63-0.11,0.93c-0.04,0.3-0.08,0.59-0.15,0.88
				c-0.04,0.21-0.08,0.42-0.12,0.64c-0.05,0.21-0.09,0.42-0.15,0.63c-0.1,0.43-0.21,0.86-0.34,1.28c-0.06,0.2-0.12,0.39-0.19,0.58
				c-0.07,0.21-0.14,0.41-0.21,0.61c-0.18,0.49-0.37,0.98-0.58,1.45c-0.11,0.25-0.23,0.51-0.35,0.76c-0.53,1.1-1.14,2.17-1.83,3.2
				c-0.12,0.18-0.24,0.36-0.38,0.54c-0.17,0.24-0.34,0.47-0.52,0.71c-0.35,0.47-0.73,0.93-1.12,1.39c-0.38,0.45-0.79,0.9-1.21,1.32
				c-0.17,0.18-0.35,0.37-0.54,0.54c-0.18,0.18-0.36,0.35-0.55,0.53c-0.26,0.25-0.54,0.5-0.81,0.73c-0.83,0.73-1.71,1.42-2.63,2.07
				c-0.3,0.22-0.6,0.43-0.91,0.64c-0.31,0.21-0.63,0.42-0.96,0.62c-0.32,0.21-0.65,0.41-0.98,0.6h-0.01
				c-1.58,0.92-3.25,1.75-5.01,2.48l4.71,8.35v1.93c12.2-4.96,21.43-13.99,24.98-24.89c0.53-1.61,0.93-3.28,1.19-4.97
				c0.12-0.79,0.22-1.58,0.28-2.39c0.07-0.86,0.11-1.71,0.11-2.59C2570.81,2580.85,2570.8,2580.54,2570.8,2580.23z M2569.1,2587.87
				l-1.19,2.97l-4.97,0.58l-3.15-2.24v-3.01l1.27-2.8l1.36-0.4v-2.08c0-0.8,0.95-1.45,2.11-1.45c1.03,0,1.89,0.51,2.08,1.18
				c0.02,0.09,0.04,0.18,0.04,0.28v1.78l2.44,2.24V2587.87z"/>
			<linearGradient id="SVGID_5_" gradientUnits="userSpaceOnUse" x1="2497.946" y1="2628.3545" x2="2561.8113" y2="2628.3545">
				<stop  offset="0" style="stop-color:#A47144"/>
				<stop  offset="2.210779e-03" style="stop-color:#A57245"/>
				<stop  offset="0.0907" style="stop-color:#D19F6E"/>
				<stop  offset="0.1612" style="stop-color:#F0BE8C"/>
				<stop  offset="0.2045" style="stop-color:#FBCB98"/>
				<stop  offset="0.238" style="stop-color:#F2C08D"/>
				<stop  offset="0.2926" style="stop-color:#DAA672"/>
				<stop  offset="0.35" style="stop-color:#BC8551"/>
				<stop  offset="0.3539" style="stop-color:#BD8652"/>
				<stop  offset="0.5582" style="stop-color:#EABB85"/>
				<stop  offset="0.66" style="stop-color:#FCD19B"/>
				<stop  offset="0.6845" style="stop-color:#FBCA92"/>
				<stop  offset="0.7344" style="stop-color:#FAC085"/>
				<stop  offset="0.8047" style="stop-color:#F9BB7E"/>
				<stop  offset="1" style="stop-color:#F9B97C"/>
			</linearGradient>
			<path class="st14" d="M2561.81,2614.23c0,3.57-0.84,6.98-2.38,10.13v0.01c-0.57,1.17-1.24,2.3-1.99,3.39l-0.02,0.02
				c-0.16,0.23-0.32,0.46-0.49,0.68c-0.19,0.26-0.39,0.53-0.6,0.78c-0.15,0.18-0.29,0.37-0.44,0.54c-0.15,0.18-0.31,0.37-0.47,0.55
				c-0.4,0.46-0.81,0.9-1.25,1.34c-0.2,0.21-0.41,0.41-0.62,0.61c-0.21,0.2-0.42,0.4-0.64,0.59c-0.28,0.25-0.56,0.51-0.85,0.74
				c-0.28,0.25-0.58,0.49-0.88,0.72c-0.26,0.21-0.52,0.41-0.79,0.6c-0.35,0.26-0.7,0.51-1.07,0.77c-0.73,0.51-1.49,0.99-2.27,1.45
				h-0.01c-0.35,0.21-0.7,0.41-1.07,0.6h-0.01c-0.76,0.41-1.54,0.8-2.34,1.17c-0.26,0.12-0.53,0.24-0.8,0.35
				c-0.36,0.16-0.73,0.31-1.11,0.46c-0.02,0.01-0.03,0.02-0.05,0.02c-0.22,0.1-0.46,0.18-0.69,0.27c-0.15,0.05-0.28,0.11-0.44,0.16
				c-0.29,0.11-0.58,0.21-0.88,0.31c-0.06,0.02-0.12,0.04-0.18,0.06c-0.28,0.1-0.57,0.19-0.86,0.28c-0.02,0.01-0.04,0.01-0.05,0.02
				c-0.31,0.1-0.61,0.19-0.92,0.28c-0.01,0-0.02,0.01-0.02,0.01c-0.17,0.05-0.34,0.11-0.52,0.15c-0.02,0.01-0.04,0.01-0.06,0.02
				c-0.19,0.06-0.39,0.11-0.59,0.16c-0.26,0.07-0.53,0.14-0.8,0.2c-0.2,0.05-0.4,0.1-0.6,0.14c-0.35,0.08-0.71,0.16-1.07,0.23
				c-0.05,0.01-0.11,0.02-0.17,0.03c-0.42,0.08-0.85,0.16-1.28,0.23c-0.08,0.02-0.16,0.03-0.25,0.04c-0.24,0.05-0.49,0.08-0.74,0.11
				c-0.1,0.02-0.2,0.03-0.3,0.04c-0.18,0.03-0.35,0.05-0.53,0.08c-0.05,0.01-0.08,0.01-0.13,0.02c-0.05,0.01-0.08,0.01-0.12,0.01
				c-0.41,0.06-0.83,0.1-1.25,0.14c-0.15,0.02-0.31,0.03-0.47,0.04c-0.26,0.02-0.52,0.05-0.77,0.06c-0.09,0.01-0.18,0.01-0.28,0.02
				c-0.49,0.03-0.97,0.05-1.46,0.07c-0.49,0.02-0.98,0.02-1.47,0.02c-0.44,0-0.9-0.01-1.34-0.02c-0.15,0-0.31-0.01-0.47-0.02h-0.07
				c-0.31-0.01-0.63-0.02-0.95-0.05c-0.21-0.01-0.44-0.02-0.65-0.05c-0.09,0-0.18-0.01-0.28-0.02c-0.53-0.04-1.06-0.09-1.58-0.15
				c-0.33-0.03-0.66-0.08-0.98-0.12c-0.07,0-0.14-0.02-0.2-0.03c-0.22-0.02-0.44-0.05-0.67-0.09c-0.76-0.11-1.5-0.24-2.24-0.4
				c-0.41-0.08-0.83-0.17-1.23-0.27c-0.41-0.09-0.82-0.19-1.22-0.3c-0.4-0.11-0.8-0.21-1.19-0.33c-0.43-0.12-0.86-0.26-1.28-0.4
				c-0.19-0.06-0.38-0.12-0.57-0.19c-0.02-0.01-0.03-0.01-0.05-0.02c-0.34-0.11-0.69-0.24-1.03-0.37c-0.27-0.09-0.54-0.19-0.8-0.3
				c-0.13-0.05-0.26-0.1-0.39-0.16c-0.3-0.11-0.59-0.24-0.88-0.37c-0.09-0.04-0.18-0.08-0.28-0.12c-0.21-0.08-0.42-0.18-0.63-0.28
				c-0.03-0.02-0.07-0.04-0.1-0.05c-0.19-0.08-0.38-0.18-0.57-0.26c-0.34-0.16-0.67-0.33-0.99-0.5c-0.4-0.2-0.78-0.41-1.16-0.63
				c-1.83-1.03-3.53-2.18-5.08-3.45l6.84-5.98c5.76,2.88,12.63,4.55,20,4.55c13.26,0,24.89-5.4,31.43-13.52
				c2.05-1.61,3.92-3.37,5.59-5.25C2561.81,2613.94,2561.81,2614.08,2561.81,2614.23z"/>
			<linearGradient id="SVGID_6_" gradientUnits="userSpaceOnUse" x1="2527.9463" y1="2594.0991" x2="2559.3164" y2="2594.0991">
				<stop  offset="0" style="stop-color:#A47144"/>
				<stop  offset="2.210779e-03" style="stop-color:#A57245"/>
				<stop  offset="0.0907" style="stop-color:#D19F6E"/>
				<stop  offset="0.1612" style="stop-color:#F0BE8C"/>
				<stop  offset="0.2045" style="stop-color:#FBCB98"/>
				<stop  offset="0.238" style="stop-color:#F2C08D"/>
				<stop  offset="0.2926" style="stop-color:#DAA672"/>
				<stop  offset="0.35" style="stop-color:#BC8551"/>
				<stop  offset="0.3539" style="stop-color:#BD8652"/>
				<stop  offset="0.5582" style="stop-color:#EABB85"/>
				<stop  offset="0.66" style="stop-color:#FCD19B"/>
				<stop  offset="0.6845" style="stop-color:#FBCA92"/>
				<stop  offset="0.7344" style="stop-color:#FAC085"/>
				<stop  offset="0.8047" style="stop-color:#F9BB7E"/>
				<stop  offset="1" style="stop-color:#F9B97C"/>
			</linearGradient>
			<path class="st15" d="M2559.32,2580.4c-0.04,9.34-5.82,17.62-14.76,22.84h-0.01c-1.58,0.92-3.25,1.75-5.01,2.48h-0.01l-0.52-0.93
				c-0.44,0.19-0.86,0.38-1.29,0.54c-0.19-0.67-1.05-1.18-2.08-1.18c-1.16,0-2.11,0.65-2.11,1.45v1.12
				c-3.27,0.89-5.58,1.08-5.58,1.08L2559.32,2580.4z"/>
			<path class="st3" d="M2556.22,2619.04c-6.54,8.12-18.18,13.52-31.43,13.52c-7.37,0-14.23-1.67-20-4.55l0.59-0.51
				c2.43,0.76,4.94,1.35,7.54,1.78v0.31c0,0.09,0.02,0.18,0.05,0.28c0.07,0.18,0.22,0.37,0.43,0.53c0.49,0.38,1.32,0.63,2.26,0.63
				c1.28,0,2.36-0.47,2.65-1.09c1.43,0.1,2.87,0.15,4.33,0.15c3.46,0,6.83-0.29,10.09-0.86v0.37c0,0.09,0.02,0.18,0.05,0.28
				c0.07,0.18,0.21,0.37,0.42,0.53c0.5,0.38,1.32,0.63,2.26,0.63c1.5,0,2.72-0.64,2.72-1.43v-1.58
				C2545.01,2626.11,2551.16,2623.03,2556.22,2619.04z"/>
			<path class="st1" d="M2518.3,2629.92c-0.28,0.63-1.37,1.09-2.65,1.09c-0.93,0-1.77-0.24-2.26-0.63
				c-0.21-0.16-0.36-0.34-0.43-0.53c-0.02-0.09-0.05-0.18-0.05-0.28v-0.31c0.32,0.05,0.65,0.11,0.97,0.15
				c0.31,0.05,0.62,0.09,0.93,0.13C2515.96,2629.72,2517.12,2629.83,2518.3,2629.92z"/>
			<path class="st1" d="M2538.17,2627.99v1.58c0,0.8-1.22,1.43-2.72,1.43c-0.93,0-1.76-0.24-2.26-0.63
				c-0.21-0.16-0.35-0.34-0.42-0.53c-0.03-0.09-0.05-0.18-0.05-0.28v-0.37c0.44-0.08,0.87-0.15,1.31-0.24
				c0.28-0.05,0.54-0.11,0.82-0.17h0.01c1.01-0.21,2.01-0.45,3-0.72C2537.96,2628.06,2538.06,2628.03,2538.17,2627.99z"/>
			<path class="st3" d="M2555.55,2672.87c0,0.6-0.02,1.21-0.07,1.8c-0.05,0.6-0.11,1.21-0.21,1.8c-0.44,2.85-1.4,5.56-2.79,8.05
				l-14.1,12.27c-4.03,1.71-8.56,2.67-13.35,2.67c-15.46,0-28.24-10-30.25-22.99c-0.09-0.59-0.16-1.19-0.21-1.8
				c-0.05-0.59-0.07-1.19-0.07-1.8c0-7.15,3.23-13.63,8.5-18.41v18.57c0,10.6,9.86,19.19,22.03,19.19
				c12.17,0,22.03-8.59,22.03-19.19v-18.57C2552.31,2659.24,2555.55,2665.72,2555.55,2672.87z"/>
			<linearGradient id="SVGID_7_" gradientUnits="userSpaceOnUse" x1="2502.9973" y1="2664.833" x2="2547.0562" y2="2664.833">
				<stop  offset="0" style="stop-color:#A47144"/>
				<stop  offset="2.210779e-03" style="stop-color:#A57245"/>
				<stop  offset="0.0907" style="stop-color:#D19F6E"/>
				<stop  offset="0.1612" style="stop-color:#F0BE8C"/>
				<stop  offset="0.2045" style="stop-color:#FBCB98"/>
				<stop  offset="0.238" style="stop-color:#F2C08D"/>
				<stop  offset="0.2926" style="stop-color:#DAA672"/>
				<stop  offset="0.35" style="stop-color:#BC8551"/>
				<stop  offset="0.3539" style="stop-color:#BD8652"/>
				<stop  offset="0.5582" style="stop-color:#EABB85"/>
				<stop  offset="0.66" style="stop-color:#FCD19B"/>
				<stop  offset="0.6845" style="stop-color:#FBCA92"/>
				<stop  offset="0.7344" style="stop-color:#FAC085"/>
				<stop  offset="0.8047" style="stop-color:#F9BB7E"/>
				<stop  offset="1" style="stop-color:#F9B97C"/>
			</linearGradient>
			<path class="st16" d="M2547.06,2641.43v31.6c0,10.6-9.86,19.19-22.03,19.19c-12.17,0-22.03-8.59-22.03-19.19v-35.59h0.03
				c0.38,0.21,0.77,0.43,1.16,0.63c0.32,0.17,0.65,0.34,0.99,0.5c0.19,0.08,0.38,0.18,0.57,0.26c0.03,0.02,0.07,0.03,0.1,0.05
				c0.21,0.1,0.41,0.2,0.63,0.28c0.09,0.05,0.18,0.08,0.28,0.12c0.29,0.13,0.58,0.25,0.88,0.37c0.13,0.06,0.26,0.11,0.39,0.16
				c0.26,0.11,0.53,0.21,0.8,0.3c0.34,0.12,0.68,0.25,1.03,0.37c0.02,0.01,0.03,0.01,0.05,0.02c0.18,0.07,0.38,0.13,0.57,0.19
				c0.42,0.14,0.85,0.28,1.28,0.4v0.21l1.19,3.89l0.67,0.1l0.59,0.93v2c0,0.08,0.02,0.17,0.04,0.25c0.19,0.61,1.05,1.07,2.08,1.07
				c1.16,0,2.11-0.59,2.11-1.32v-2l1.38-2.04l0.01-0.01l1.25-1.16v-0.24c0.09,0.01,0.18,0.02,0.28,0.02
				c0.21,0.02,0.44,0.04,0.65,0.05c0.32,0.02,0.64,0.04,0.95,0.05h0.07c0.15,0.01,0.31,0.02,0.47,0.02c0.44,0.02,0.9,0.02,1.34,0.02
				c0.49,0,0.98-0.01,1.47-0.02c0.49-0.02,0.97-0.04,1.46-0.07c0.09-0.01,0.18-0.01,0.28-0.02c0.25-0.02,0.51-0.04,0.77-0.06
				c0.15-0.01,0.31-0.02,0.47-0.04c0.41-0.04,0.83-0.08,1.25-0.14c0.04,0,0.08,0,0.12-0.01c0.05-0.01,0.08-0.01,0.13-0.02
				c0.18-0.02,0.35-0.05,0.53-0.08c0.1-0.01,0.2-0.02,0.3-0.04c0.25-0.03,0.5-0.07,0.74-0.11c0.08-0.01,0.17-0.02,0.25-0.04
				c0.43-0.07,0.86-0.15,1.28-0.23c0.06-0.01,0.11-0.02,0.17-0.03c0.36-0.07,0.72-0.15,1.07-0.23c0.2-0.04,0.4-0.08,0.6-0.14
				c0.28-0.06,0.54-0.13,0.8-0.2c0.2-0.05,0.4-0.1,0.59-0.16c0.02-0.01,0.04-0.01,0.06-0.02c0.18-0.04,0.35-0.09,0.52-0.15
				c0.01,0,0.02-0.01,0.02-0.01c0.31-0.08,0.61-0.18,0.92-0.28c0.02-0.01,0.04-0.01,0.05-0.02c0.29-0.08,0.57-0.18,0.86-0.28
				c0.06-0.02,0.12-0.04,0.18-0.06c0.3-0.1,0.59-0.21,0.88-0.31c0.15-0.05,0.29-0.11,0.44-0.16c0.23-0.08,0.47-0.17,0.69-0.27
				c0.02-0.01,0.03-0.02,0.05-0.02c0.38-0.15,0.75-0.3,1.11-0.46c0.27-0.11,0.54-0.23,0.8-0.35c0.8-0.37,1.58-0.76,2.34-1.17h0.01
				l0.12,0.02l0.59,0.93v2c0,0.08,0.02,0.17,0.04,0.25C2546.78,2641.12,2546.9,2641.29,2547.06,2641.43z"/>
			<linearGradient id="SVGID_8_" gradientUnits="userSpaceOnUse" x1="2494.5022" y1="2687.9646" x2="2555.551" y2="2687.9646">
				<stop  offset="0" style="stop-color:#A47144"/>
				<stop  offset="2.210779e-03" style="stop-color:#A57245"/>
				<stop  offset="0.0907" style="stop-color:#D19F6E"/>
				<stop  offset="0.1612" style="stop-color:#F0BE8C"/>
				<stop  offset="0.2045" style="stop-color:#FBCB98"/>
				<stop  offset="0.238" style="stop-color:#F2C08D"/>
				<stop  offset="0.2926" style="stop-color:#DAA672"/>
				<stop  offset="0.35" style="stop-color:#BC8551"/>
				<stop  offset="0.3539" style="stop-color:#BD8652"/>
				<stop  offset="0.5582" style="stop-color:#EABB85"/>
				<stop  offset="0.66" style="stop-color:#FCD19B"/>
				<stop  offset="0.6845" style="stop-color:#FBCA92"/>
				<stop  offset="0.7344" style="stop-color:#FAC085"/>
				<stop  offset="0.8047" style="stop-color:#F9BB7E"/>
				<stop  offset="1" style="stop-color:#F9B97C"/>
			</linearGradient>
			<path class="st17" d="M2538.38,2696.79l-6.41,5.58c-2.23,0.45-4.55,0.69-6.93,0.69c-16.86,0-30.53-11.9-30.53-26.59v-3.6
				c0,0.6,0.02,1.21,0.07,1.8c0.05,0.6,0.11,1.21,0.21,1.8c2.01,12.99,14.79,22.99,30.25,22.99
				C2529.81,2699.46,2534.34,2698.5,2538.38,2696.79z M2555.48,2674.67c-0.05,0.6-0.11,1.21-0.21,1.8c-0.44,2.85-1.4,5.56-2.79,8.05
				l2.27-1.98c0.52-1.95,0.8-3.98,0.8-6.07v-3.6C2555.55,2673.48,2555.53,2674.08,2555.48,2674.67z"/>
			<linearGradient id="SVGID_9_" gradientUnits="userSpaceOnUse" x1="2505.3772" y1="2608.1885" x2="2570.8113" y2="2608.1885">
				<stop  offset="0" style="stop-color:#A47144"/>
				<stop  offset="2.210779e-03" style="stop-color:#A57245"/>
				<stop  offset="0.0907" style="stop-color:#D19F6E"/>
				<stop  offset="0.1612" style="stop-color:#F0BE8C"/>
				<stop  offset="0.2045" style="stop-color:#FBCB98"/>
				<stop  offset="0.238" style="stop-color:#F2C08D"/>
				<stop  offset="0.2926" style="stop-color:#DAA672"/>
				<stop  offset="0.35" style="stop-color:#BC8551"/>
				<stop  offset="0.3539" style="stop-color:#BD8652"/>
				<stop  offset="0.5582" style="stop-color:#EABB85"/>
				<stop  offset="0.66" style="stop-color:#FCD19B"/>
				<stop  offset="0.6845" style="stop-color:#FBCA92"/>
				<stop  offset="0.7344" style="stop-color:#FAC085"/>
				<stop  offset="0.8047" style="stop-color:#F9BB7E"/>
				<stop  offset="1" style="stop-color:#F9B97C"/>
			</linearGradient>
			<path class="st18" d="M2570.81,2586.31v4.8c0,8.46-3.34,16.29-9.01,22.68c-1.67,1.88-3.54,3.64-5.59,5.25
				c-5.06,3.99-11.2,7.07-18.05,8.95c-0.11,0.03-0.21,0.06-0.32,0.09c-0.99,0.27-1.98,0.51-3,0.72h-0.01
				c-0.28,0.06-0.54,0.11-0.82,0.17c-0.44,0.08-0.86,0.16-1.31,0.24c-3.25,0.57-6.63,0.86-10.09,0.86c-1.46,0-2.9-0.05-4.33-0.15
				c-0.44-0.03-0.88-0.07-1.32-0.11c-0.15-0.02-0.29-0.03-0.44-0.05c-0.32-0.03-0.64-0.07-0.96-0.11c-0.26-0.03-0.51-0.06-0.77-0.1
				c-0.31-0.04-0.62-0.08-0.93-0.13c-0.32-0.05-0.65-0.1-0.97-0.15c-2.59-0.42-5.11-1.02-7.54-1.78l4.21-3.67
				c4.15,0.94,8.52,1.45,13.04,1.45c24.6,0,44.89-14.91,47.82-34.16c0.12-0.79,0.21-1.59,0.28-2.4
				C2570.78,2587.92,2570.81,2587.11,2570.81,2586.31z"/>
			<path class="st3" d="M2544.25,2614.07c-3.92,1.59-8.17,2.77-12.61,3.44l-3.86,0.46c-1.69,0.15-3.41,0.22-5.14,0.22
				c-2.1,0-4.18-0.11-6.21-0.32l11.53-10.07c0,0,2.31-0.19,5.58-1.08v0.96l-1.36,0.4l-1.27,2.8v3.01l3.15,2.24l4.97-0.58l1.19-2.97
				v-2.95l-2.44-2.24v-1.78c0-0.09-0.02-0.18-0.04-0.28c0.43-0.17,0.86-0.35,1.29-0.54l0.52,0.93h0.01L2544.25,2614.07z"/>
			<polygon class="st19" points="2489.35,2641.49 2489.33,2695.45 2489.33,2696.54 2489.32,2725.87 2487.5,2727.43 2487.5,2643.11 
							"/>
			<polygon class="st20" points="2464.3,2663.36 2464.3,2707.3 2487.5,2727.43 2487.5,2643.11 			"/>
			<polygon class="st20" points="2441.57,2683.21 2441.57,2691.2 2488.42,2731.69 2501.26,2724.32 2489.35,2703.85 2489.32,2725.87 
				2487.5,2727.43 2464.3,2707.3 2464.3,2663.36 			"/>
			<path class="st3" d="M2531.96,2702.37l-14.65,12.74l-12.41,7.12l-15.57-26.77v-0.01l0.02-53.95l8.59-7.51
				c1.55,1.27,3.25,2.43,5.08,3.45H2503v17.03c-5.27,4.78-8.5,11.26-8.5,18.41v3.6c0,14.69,13.67,26.59,30.53,26.59
				C2527.42,2703.06,2529.74,2702.82,2531.96,2702.37z"/>
			<polygon class="st21" points="2504.9,2722.23 2501.27,2724.32 2489.35,2703.85 2489.33,2696.54 2489.33,2695.46 			"/>
			<linearGradient id="SVGID_10_" gradientUnits="userSpaceOnUse" x1="2514.4768" y1="2617.0967" x2="2544.2473" y2="2617.0967">
				<stop  offset="0" style="stop-color:#A47144"/>
				<stop  offset="2.210779e-03" style="stop-color:#A57245"/>
				<stop  offset="0.0907" style="stop-color:#D19F6E"/>
				<stop  offset="0.1612" style="stop-color:#F0BE8C"/>
				<stop  offset="0.2045" style="stop-color:#FBCB98"/>
				<stop  offset="0.2841" style="stop-color:#F2C08D"/>
				<stop  offset="0.4138" style="stop-color:#DAA672"/>
				<stop  offset="0.55" style="stop-color:#BC8551"/>
				<stop  offset="0.829" style="stop-color:#E4A76D"/>
				<stop  offset="1" style="stop-color:#F9B97C"/>
			</linearGradient>
			<path class="st22" d="M2544.25,2614.07v1.93c-6.51,2.64-13.84,4.13-21.62,4.13c-2.78,0-5.5-0.19-8.15-0.56l1.93-1.7h0.01
				c2.04,0.21,4.11,0.32,6.21,0.32c1.74,0,3.45-0.08,5.14-0.22c1.3-0.11,2.59-0.26,3.86-0.46
				C2536.07,2616.84,2540.33,2615.66,2544.25,2614.07z"/>
			<linearGradient id="SVGID_11_" gradientUnits="userSpaceOnUse" x1="2509.5864" y1="2603.2178" x2="2570.8113" y2="2603.2178">
				<stop  offset="0" style="stop-color:#A47144"/>
				<stop  offset="2.210779e-03" style="stop-color:#A57245"/>
				<stop  offset="0.0907" style="stop-color:#D19F6E"/>
				<stop  offset="0.1612" style="stop-color:#F0BE8C"/>
				<stop  offset="0.2045" style="stop-color:#FBCB98"/>
				<stop  offset="0.238" style="stop-color:#F2C08D"/>
				<stop  offset="0.2926" style="stop-color:#DAA672"/>
				<stop  offset="0.35" style="stop-color:#BC8551"/>
				<stop  offset="0.3539" style="stop-color:#BD8652"/>
				<stop  offset="0.5582" style="stop-color:#EABB85"/>
				<stop  offset="0.66" style="stop-color:#FCD19B"/>
				<stop  offset="0.6845" style="stop-color:#FBCA92"/>
				<stop  offset="0.7344" style="stop-color:#FAC085"/>
				<stop  offset="0.8047" style="stop-color:#F9BB7E"/>
				<stop  offset="1" style="stop-color:#F9B97C"/>
			</linearGradient>
			<path class="st23" d="M2570.81,2581.17v5.14c0,0.8-0.03,1.61-0.09,2.4c-0.06,0.8-0.15,1.61-0.28,2.4
				c-2.92,19.26-23.22,34.16-47.82,34.16c-4.52,0-8.89-0.51-13.04-1.45l4.88-4.26h0.02c2.65,0.37,5.37,0.56,8.15,0.56
				c7.78,0,15.11-1.49,21.62-4.13c12.2-4.96,21.43-13.99,24.98-24.89c0.53-1.61,0.93-3.28,1.19-4.97c0.12-0.79,0.22-1.58,0.28-2.39
				C2570.77,2582.89,2570.81,2582.04,2570.81,2581.17z"/>
			<path class="st20" d="M2567.28,2645.76v6.31l-15.73-14.3l0.75-1.11l0.01-0.01l1.25-1.16v-3.21c0.21-0.2,0.42-0.41,0.62-0.61
				c0.44-0.44,0.85-0.88,1.25-1.34c0.16-0.18,0.32-0.37,0.47-0.55c0.15-0.18,0.3-0.36,0.44-0.54c0.21-0.25,0.41-0.52,0.6-0.78
				c0.17-0.22,0.33-0.45,0.49-0.68l0.02-0.02l7.3,10.93c0,0,0.09,0.11,0.24,0.32c0.11,0.17,0.28,0.4,0.44,0.69
				c0.04,0.07,0.08,0.14,0.12,0.21c0.57,0.98,1.29,2.49,1.59,4.24c0.03,0.13,0.05,0.27,0.06,0.41c0.02,0.16,0.05,0.32,0.05,0.48
				C2567.28,2645.28,2567.28,2645.51,2567.28,2645.76z"/>
			<linearGradient id="SVGID_12_" gradientUnits="userSpaceOnUse" x1="2569.3906" y1="2644.9907" x2="2566.4106" y2="2636.8035">
				<stop  offset="0" style="stop-color:#DFA370"/>
				<stop  offset="1" style="stop-color:#A67747"/>
			</linearGradient>
			<path class="st24" d="M2570.41,2642.99l-3.13,2.76c0-0.24-0.01-0.48-0.03-0.72c-0.01-0.16-0.03-0.32-0.05-0.48
				c-0.02-0.15-0.03-0.28-0.06-0.41c-0.3-1.75-1.02-3.26-1.59-4.24c-0.04-0.07-0.08-0.14-0.12-0.21c-0.17-0.29-0.33-0.52-0.44-0.69
				l3.09-2.81C2568.68,2637.05,2570.41,2639.78,2570.41,2642.99z"/>
			<path class="st21" d="M2568.07,2636.2l-3.09,2.81c-0.15-0.21-0.24-0.32-0.24-0.32l-7.3-10.93c0.75-1.09,1.42-2.22,1.99-3.39
				l8.44,11.56C2567.87,2635.92,2567.95,2636.02,2568.07,2636.2z"/>
			<polygon class="st19" points="2570.41,2642.99 2570.41,2649.31 2567.28,2652.07 2567.28,2645.76 			"/>
			<polygon class="st19" points="2600.78,2622.22 2600.78,2630.07 2597.31,2633.12 2597.31,2625.27 			"/>
			<path class="st21" d="M2595.12,2601.28l-0.37,0.32l-3.11,2.73c-3.21-11.78-6.8-13.65-9.26-13.11c-0.82,0.18-1.51,0.62-2.03,1.06
				l2.79-2.49c0.65-0.62,1.89-1.69,3.44-1.71c0.18,0,0.35,0.01,0.53,0.04h0.01C2589.47,2588.47,2592.4,2591.35,2595.12,2601.28z"/>
			<path class="st20" d="M2591.64,2604.33c-3.21-11.78-6.8-13.65-9.26-13.11c-0.82,0.18-1.51,0.62-2.03,1.06
				c-0.65,0.54-0.98,1.26-0.98,1.26l-5.25,11.24v8.27l23.18,20.07v-7.85L2591.64,2604.33z M2590.18,2614.17l-1.93,1.59
				c0,0-3.38,4.37-8.23-6.73v-11.37c0,0,0.14-0.14,0.28-0.26l1.64-1.33c0,0,4.19-4.22,8.24,7.98V2614.17z"/>
			<polygon class="st19" points="2616.18,2609.18 2616.18,2617.03 2612.7,2620.07 2612.7,2612.23 2616.17,2609.18 			"/>
			<linearGradient id="SVGID_13_" gradientUnits="userSpaceOnUse" x1="2615.5869" y1="2611.1802" x2="2607.6189" y2="2589.2883">
				<stop  offset="0" style="stop-color:#DFA370"/>
				<stop  offset="1" style="stop-color:#AF7C4A"/>
			</linearGradient>
			<polygon class="st25" points="2616.17,2609.18 2612.7,2612.23 2612.7,2612.23 2607.03,2591.29 2610.14,2588.56 2610.51,2588.24 
				2611.6,2592.29 2611.89,2593.36 			"/>
			<path class="st21" d="M2610.51,2588.24l-0.37,0.32l-3.11,2.73c-1.13-4.16-2.31-7.07-3.47-9.09l-0.11-3.18
				c-0.03-0.52-0.6-0.89-0.6-0.89l-1.66-1.22v-1.77c0.25-0.07,0.52-0.11,0.8-0.11c0.18,0,0.35,0.01,0.53,0.04h0.01
				c0.45,0.06,0.92,0.22,1.41,0.51l0.28,0.18c1.34,0.9,2.79,2.77,4.22,6.24l0.01,0.01
				C2609.13,2583.69,2609.83,2585.74,2610.51,2588.24z"/>
			<path class="st20" d="M2612.7,2612.23v7.85l-14.32-12.4l3.92-3.19c0,0,0.1-0.08,0.24-0.31l0.09,0.06
				c0.04,0.02,0.08,0.05,0.12,0.06c0.48,0.18,1.26-0.37,1.83-1.14l0.61,0.4l0.13,0.08c0.34,0.12,0.85-0.42,1.14-1.22
				c0.27-0.73,0.26-1.42-0.01-1.62l-0.08-0.05l-0.57-0.37c0.24-1.03,0.15-1.86-0.15-2.36c-0.1-0.16-0.23-0.28-0.37-0.37l-1.22-0.84
				l-0.34-9.85l-0.01-0.01l-0.16-4.75c1.16,2.02,2.34,4.94,3.47,9.09L2612.7,2612.23z"/>
			<linearGradient id="SVGID_14_" gradientUnits="userSpaceOnUse" x1="2600.1956" y1="2624.2188" x2="2592.2285" y2="2602.3291">
				<stop  offset="0" style="stop-color:#DFA370"/>
				<stop  offset="1" style="stop-color:#AF7C4A"/>
			</linearGradient>
			<polygon class="st26" points="2600.78,2622.22 2597.31,2625.27 2591.64,2604.33 2594.75,2601.6 2595.12,2601.28 2595.61,2603.12 
				2595.96,2604.38 2597.12,2608.69 			"/>
			<path class="st20" d="M2646.51,2602.72l-6.67,5.79l-24.86-21.07v-0.01c0.88-1.47,0.96-3.86,0.09-6.28
				c-0.34-0.92-0.77-1.74-1.28-2.44c-1.38-1.91-3.24-2.91-4.77-2.35c-0.24,0.09-0.47,0.21-0.67,0.37c-0.5-0.11-0.99-0.08-1.44,0.08
				c-0.2,0.07-0.39,0.17-0.56,0.29l-2.16-1.34l-0.28-0.18c-0.49-0.29-0.96-0.45-1.41-0.51h-0.01c-0.18-0.03-0.35-0.04-0.53-0.04
				c-0.28,0-0.54,0.04-0.8,0.11v-0.28c4.19-1.88,7.03-5.57,7.03-9.8v-27.36l0.39-0.34L2646.51,2602.72z"/>
			<linearGradient id="SVGID_15_" gradientUnits="userSpaceOnUse" x1="2488.1501" y1="2306.656" x2="2559.8599" y2="2306.656">
				<stop  offset="0" style="stop-color:#A47144"/>
				<stop  offset="2.210779e-03" style="stop-color:#A57245"/>
				<stop  offset="0.0907" style="stop-color:#D19F6E"/>
				<stop  offset="0.1612" style="stop-color:#F0BE8C"/>
				<stop  offset="0.2045" style="stop-color:#FBCB98"/>
				<stop  offset="0.238" style="stop-color:#F2C08D"/>
				<stop  offset="0.2926" style="stop-color:#DAA672"/>
				<stop  offset="0.35" style="stop-color:#BC8551"/>
				<stop  offset="0.3539" style="stop-color:#BD8652"/>
				<stop  offset="0.5582" style="stop-color:#EABB85"/>
				<stop  offset="0.66" style="stop-color:#FCD19B"/>
				<stop  offset="0.6845" style="stop-color:#FBCA92"/>
				<stop  offset="0.7344" style="stop-color:#FAC085"/>
				<stop  offset="0.8047" style="stop-color:#F9BB7E"/>
				<stop  offset="1" style="stop-color:#F9B97C"/>
			</linearGradient>
			<path class="st27" d="M2559.86,2163.67v255.19c0,13.48-10.12,24.96-24.2,29.11c0,0,0,0-0.01,0c-1.01,0-1.91,0.34-1.91,0.34
				c-0.14,0.05-0.26,0.11-0.38,0.18l-0.89,0.15l-0.05,0.13c-2.7,0.56-5.52,0.86-8.41,0.86c-9.24,0-17.66-3-24.02-7.93v-1.39
				l-2.39-2.4l-1.25,0.21c-0.11-0.02-0.22-0.03-0.34-0.03c-3.44-3.68-5.9-8.04-7.08-12.82v-36.85c1.9-1.81,2.57-3.47,2.61-4.89
				c0.06-2.58-1.98-4.39-2.61-4.88v-24.43l2.02-8.33c0.36-1.5,0.28-2.11,0.06-2.32l-0.08-0.05l-1.16-0.85
				c-0.02-0.03-0.05-0.05-0.08-0.06c-0.29-0.15-0.73,0.22-0.73,0.22l-0.57,0.47l-0.01,0.01l-0.23,0.19v-179.83
				c0,6.71,2.49,12.92,6.74,17.97c6.51,7.75,17.12,12.8,29.11,12.8C2543.8,2194.45,2559.86,2180.67,2559.86,2163.67z"/>
			<path class="st3" d="M2606.15,2437.91l-10.59-9.57l-28.05-24.76c0.33,0.74,0.64,1.5,0.92,2.27c0.08,0.22,0.17,0.44,0.24,0.67
				c0.02,0.06,0.04,0.12,0.06,0.18c0.1,0.28,0.2,0.58,0.28,0.87c0.08,0.24,0.15,0.47,0.21,0.71c0.06,0.2,0.12,0.41,0.18,0.61
				c0.18,0.63,0.33,1.27,0.47,1.91c0.08,0.36,0.15,0.72,0.21,1.08l0.73-0.14l2.39,2.66v1.74c0.44,0.66,0.7,1.42,0.7,2.23v1.51
				c0,0.26-0.02,0.51-0.08,0.73c-0.29,1.54-1.51,2.81-3.15,3.36v8.84c0,9.96-4.08,19.08-10.86,26.14
				c-0.94,16.26-16.31,29.2-35.13,29.2c-18.82,0-34.19-12.93-35.13-29.2c-0.21-0.22-0.42-0.44-0.63-0.67v60.57l13.78,11.9h12.75
				l92.6-80.85v-10.39L2606.15,2437.91z M2509.52,2516.88c0,0.26-0.02,0.5-0.08,0.73c-0.39,2.08-2.48,3.67-5.01,3.67
				c-2.83,0-5.1-1.97-5.1-4.4v-1.51c0-0.89,0.31-1.72,0.84-2.42v-0.14l1.18-3.15l0.89-0.16c0.12-0.08,0.24-0.15,0.38-0.21
				c0,0,0.91-0.38,1.92-0.38c0.11,0,0.21,0,0.31,0.02c0.11,0,0.23,0.02,0.34,0.03l1.25-0.23l2.39,2.66v1.74
				c0.44,0.66,0.7,1.42,0.7,2.23V2516.88z M2597.1,2440.78c0,0.26-0.02,0.51-0.08,0.73c-0.39,2.08-2.48,3.67-5.01,3.67
				c-2.83,0-5.1-1.97-5.1-4.4v-1.51c0-0.89,0.31-1.72,0.84-2.42v-0.14l1.18-3.15l0.89-0.17c0.12-0.07,0.25-0.14,0.38-0.2
				c0,0,0.91-0.38,1.92-0.38c0.11,0,0.21,0,0.31,0.02c0.11,0,0.23,0.02,0.34,0.04l1.25-0.23l2.39,2.66v1.74
				c0.44,0.66,0.7,1.42,0.7,2.23V2440.78z"/>
			<path class="st3" d="M2559.86,2163.67c0,17-16.06,30.77-35.85,30.77c-11.99,0-22.6-5.05-29.11-12.8
				c-4.25-5.05-6.74-11.26-6.74-17.97c0-17,16.05-30.77,35.85-30.77c7.6,0,14.66,2.04,20.46,5.5
				C2553.77,2143.96,2559.86,2153.2,2559.86,2163.67z"/>
			<path class="st3" d="M2570.67,2417.98c0.01-0.12,0-0.24-0.01-0.36c-0.01-0.47-0.02-0.93-0.05-1.4c-0.02-0.47-0.06-0.93-0.11-1.39
				c-0.09-0.93-0.21-1.84-0.38-2.74c-0.01-0.07-0.02-0.13-0.03-0.19c-0.07-0.36-0.14-0.72-0.21-1.08c-0.14-0.64-0.29-1.29-0.47-1.91
				c-0.05-0.21-0.11-0.41-0.18-0.61c-0.06-0.24-0.14-0.47-0.21-0.71c-0.08-0.29-0.18-0.59-0.28-0.87c-0.02-0.06-0.04-0.12-0.06-0.18
				c-0.08-0.23-0.16-0.45-0.24-0.67c-0.28-0.77-0.59-1.53-0.92-2.27c-0.34-0.76-0.7-1.5-1.09-2.23c-0.56-1.07-1.17-2.12-1.84-3.14
				v-0.01c-1.37-2.1-2.95-4.07-4.71-5.92v26.57c0,13.48-10.12,24.96-24.2,29.11c0.23,0,0.44,0.02,0.64,0.05l1.25-0.21l2.39,2.4v3.01
				l-1.1,3.02l-4.61,0.59l-2.93-2.28v-3.05l1.13-2.72c-2.7,0.56-5.52,0.86-8.41,0.86c-9.24,0-17.66-3-24.02-7.93v1.61l-1.1,3.02
				l-4.61,0.59l-2.93-2.28v-3.05l1.18-2.85l0.89-0.15c0.12-0.07,0.25-0.13,0.38-0.18c0,0,0.91-0.34,1.92-0.34
				c0.11,0,0.21,0,0.31,0.02c-3.44-3.68-5.9-8.04-7.08-12.82v18.57c2.73,2.99,5.94,5.62,9.53,7.81c7.44,4.56,16.48,7.24,26.23,7.24
				c19.61,0,36.37-10.82,42.97-26.07c1-2.31,1.78-4.73,2.28-7.22c0.18-0.89,0.34-1.78,0.44-2.69c0.01-0.01,0-0.02,0-0.02
				c0.19-1.48,0.29-2.99,0.29-4.52C2570.67,2418.25,2570.67,2418.12,2570.67,2417.98z M2568.51,2427.51l-1.1,3.02l-4.61,0.59
				l-2.93-2.28v-3.05l1.18-2.85l0.89-0.15c0.12-0.07,0.24-0.13,0.38-0.18c0,0,0.91-0.34,1.92-0.34c0.23,0,0.44,0.02,0.64,0.05
				l1.25-0.21l2.39,2.4V2427.51z"/>
			<linearGradient id="SVGID_16_" gradientUnits="userSpaceOnUse" x1="2488.9307" y1="2450.4004" x2="2570.6736" y2="2450.4004">
				<stop  offset="0" style="stop-color:#A47144"/>
				<stop  offset="2.210779e-03" style="stop-color:#A57245"/>
				<stop  offset="0.0907" style="stop-color:#D19F6E"/>
				<stop  offset="0.1612" style="stop-color:#F0BE8C"/>
				<stop  offset="0.2045" style="stop-color:#FBCB98"/>
				<stop  offset="0.238" style="stop-color:#F2C08D"/>
				<stop  offset="0.2926" style="stop-color:#DAA672"/>
				<stop  offset="0.35" style="stop-color:#BC8551"/>
				<stop  offset="0.3539" style="stop-color:#BD8652"/>
				<stop  offset="0.5582" style="stop-color:#EABB85"/>
				<stop  offset="0.66" style="stop-color:#FCD19B"/>
				<stop  offset="0.6845" style="stop-color:#FBCA92"/>
				<stop  offset="0.7344" style="stop-color:#FAC085"/>
				<stop  offset="0.8047" style="stop-color:#F9BB7E"/>
				<stop  offset="1" style="stop-color:#F9B97C"/>
			</linearGradient>
			<path class="st28" d="M2570.67,2427.45v5.38c0,9.96-4.08,19.08-10.86,26.14c-5.08,5.3-11.69,9.44-19.22,11.89v0.01
				c-1.03,0.33-2.09,0.64-3.15,0.9c-1.62,0.41-3.28,0.75-4.97,1c-0.11,0.02-0.21,0.03-0.32,0.05c-2.43,0.35-4.93,0.54-7.47,0.54
				c-10.06,0-19.36-2.85-26.93-7.68l-0.04-0.02c-0.3-0.18-0.58-0.38-0.87-0.57c-1.61-1.08-3.15-2.25-4.58-3.51
				c-0.41-0.34-0.8-0.7-1.19-1.07v-0.01c-0.52-0.49-1.03-0.99-1.52-1.51c-0.21-0.22-0.42-0.44-0.63-0.67v-5.38
				c8.43,9.18,21.31,15.04,35.76,15.04c23.32,0,42.6-15.3,45.58-35.13c0.14-0.88,0.24-1.78,0.3-2.68v-0.01
				C2570.64,2429.26,2570.67,2428.36,2570.67,2427.45z"/>
			<linearGradient id="SVGID_17_" gradientUnits="userSpaceOnUse" x1="2488.9307" y1="2443.1721" x2="2570.6736" y2="2443.1721">
				<stop  offset="0" style="stop-color:#A47144"/>
				<stop  offset="2.210779e-03" style="stop-color:#A57245"/>
				<stop  offset="0.0907" style="stop-color:#D19F6E"/>
				<stop  offset="0.1612" style="stop-color:#F0BE8C"/>
				<stop  offset="0.2045" style="stop-color:#FBCB98"/>
				<stop  offset="0.238" style="stop-color:#F2C08D"/>
				<stop  offset="0.2926" style="stop-color:#DAA672"/>
				<stop  offset="0.35" style="stop-color:#BC8551"/>
				<stop  offset="0.3539" style="stop-color:#BD8652"/>
				<stop  offset="0.5582" style="stop-color:#EABB85"/>
				<stop  offset="0.66" style="stop-color:#FCD19B"/>
				<stop  offset="0.6845" style="stop-color:#FBCA92"/>
				<stop  offset="0.7344" style="stop-color:#FAC085"/>
				<stop  offset="0.8047" style="stop-color:#F9BB7E"/>
				<stop  offset="1" style="stop-color:#F9B97C"/>
			</linearGradient>
			<path class="st29" d="M2570.67,2418.38v9.07c0,0.9-0.03,1.81-0.11,2.69v0.01c-0.06,0.9-0.16,1.8-0.3,2.68
				c-2.98,19.83-22.26,35.13-45.58,35.13c-14.44,0-27.33-5.86-35.76-15.04v-9.08c2.73,2.99,5.94,5.62,9.53,7.81
				c7.44,4.56,16.48,7.24,26.23,7.24c19.61,0,36.37-10.82,42.97-26.07c1-2.31,1.78-4.73,2.28-7.22c0.18-0.89,0.34-1.78,0.44-2.69
				c0.01-0.01,0-0.02,0-0.02C2570.57,2421.43,2570.67,2419.91,2570.67,2418.38z"/>
			<linearGradient id="SVGID_18_" gradientUnits="userSpaceOnUse" x1="2489.5583" y1="2473.5664" x2="2559.814" y2="2473.5664">
				<stop  offset="0" style="stop-color:#A47144"/>
				<stop  offset="2.210779e-03" style="stop-color:#A57245"/>
				<stop  offset="0.0907" style="stop-color:#D19F6E"/>
				<stop  offset="0.1612" style="stop-color:#F0BE8C"/>
				<stop  offset="0.2045" style="stop-color:#FBCB98"/>
				<stop  offset="0.238" style="stop-color:#F2C08D"/>
				<stop  offset="0.2926" style="stop-color:#DAA672"/>
				<stop  offset="0.35" style="stop-color:#BC8551"/>
				<stop  offset="0.3539" style="stop-color:#BD8652"/>
				<stop  offset="0.5582" style="stop-color:#EABB85"/>
				<stop  offset="0.66" style="stop-color:#FCD19B"/>
				<stop  offset="0.6845" style="stop-color:#FBCA92"/>
				<stop  offset="0.7344" style="stop-color:#FAC085"/>
				<stop  offset="0.8047" style="stop-color:#F9BB7E"/>
				<stop  offset="1" style="stop-color:#F9B97C"/>
			</linearGradient>
			<path class="st30" d="M2559.81,2458.97c-0.94,16.26-16.31,29.2-35.13,29.2c-18.82,0-34.19-12.93-35.13-29.2
				c0.49,0.52,1,1.02,1.52,1.51v0.01l1.19,3.89l0.67,0.1l0.59,0.93v2c0,0.08,0.02,0.17,0.04,0.25c0.19,0.61,1.05,1.07,2.08,1.07
				c1.16,0,2.11-0.59,2.11-1.32v-1.73c7.57,4.84,16.88,7.68,26.93,7.68c2.54,0,5.04-0.18,7.47-0.54l0.32,1.04l0.67,0.1l0.59,0.93v2
				c0,0.08,0.02,0.17,0.04,0.25c0.19,0.61,1.05,1.07,2.08,1.07c1.16,0,2.11-0.59,2.11-1.32v-2l1.38-2.04l0.01-0.01l1.25-1.16v-0.83
				C2548.13,2468.4,2554.73,2464.26,2559.81,2458.97z"/>
			<polygon class="st31" points="2515.5,2536.69 2502.71,2536.69 2502.71,2530.78 2515.46,2530.78 			"/>
			<polygon class="st20" points="2502.71,2530.78 2502.71,2536.69 2488.93,2524.92 2488.93,2518.88 			"/>
			<polygon class="st19" points="2608.06,2449.93 2608.06,2455.63 2515.5,2536.69 2515.46,2530.78 			"/>
			<linearGradient id="SVGID_19_" gradientUnits="userSpaceOnUse" x1="2488.9287" y1="2557.6631" x2="2498.1833" y2="2557.6631">
				<stop  offset="0" style="stop-color:#AF7C4A"/>
				<stop  offset="1" style="stop-color:#DFA370"/>
			</linearGradient>
			<polygon class="st32" points="2498.18,2558.83 2488.93,2550.53 2488.93,2555.81 2491.34,2564.8 2498.18,2558.83 			"/>
			<path class="st33" d="M2609.35,2100c0,0.04,0.01,0.08,0,0.13c0.01,0.23,0.01,0.46,0,0.7v6.51l-1.13-0.43v-11.13
				C2608.92,2096.66,2609.32,2098.17,2609.35,2100z"/>
			<linearGradient id="SVGID_20_" gradientUnits="userSpaceOnUse" x1="2580.6226" y1="2079.948" x2="2609.5898" y2="2079.948">
				<stop  offset="0" style="stop-color:#A47144"/>
				<stop  offset="2.210779e-03" style="stop-color:#A57245"/>
				<stop  offset="0.0907" style="stop-color:#D19F6E"/>
				<stop  offset="0.1612" style="stop-color:#F0BE8C"/>
				<stop  offset="0.2045" style="stop-color:#FBCB98"/>
				<stop  offset="0.238" style="stop-color:#F2C08D"/>
				<stop  offset="0.2926" style="stop-color:#DAA672"/>
				<stop  offset="0.35" style="stop-color:#BC8551"/>
				<stop  offset="0.3539" style="stop-color:#BD8652"/>
				<stop  offset="0.5582" style="stop-color:#EABB85"/>
				<stop  offset="0.66" style="stop-color:#FCD19B"/>
				<stop  offset="0.6845" style="stop-color:#FBCA92"/>
				<stop  offset="0.7344" style="stop-color:#FAC085"/>
				<stop  offset="0.8047" style="stop-color:#F9BB7E"/>
				<stop  offset="1" style="stop-color:#F9B97C"/>
			</linearGradient>
			<path class="st34" d="M2609.59,2081.59v0.05c0,0.52-0.04,1.04-0.11,1.55c-0.02,0.18-0.05,0.36-0.08,0.54
				c0,0.01-0.01,0.02-0.01,0.03c-0.04,0.21-0.08,0.41-0.14,0.6c-0.02,0.05-0.02,0.11-0.05,0.16c-0.05,0.18-0.1,0.36-0.16,0.54
				c0,0.01,0,0.02-0.01,0.03c-0.07,0.21-0.14,0.41-0.22,0.6c-0.06,0.17-0.13,0.33-0.21,0.49c-0.05,0.11-0.09,0.21-0.15,0.32
				c-0.07,0.15-0.14,0.28-0.21,0.42c-0.01,0.02-0.02,0.05-0.04,0.07c-0.07,0.13-0.15,0.26-0.22,0.39c-0.3,0.5-0.64,0.97-1.01,1.43
				c-0.05,0.06-0.09,0.11-0.15,0.18c-0.13,0.16-0.27,0.31-0.41,0.47c-0.42,0.45-0.89,0.89-1.39,1.29c0.29-0.28,0.57-0.58,0.82-0.89
				c0.08-0.08,0.15-0.18,0.22-0.27c0.03-0.04,0.06-0.08,0.09-0.12c0.1-0.13,0.2-0.26,0.29-0.4c0.02-0.02,0.03-0.05,0.05-0.07
				c0.13-0.19,0.25-0.38,0.37-0.58c0.11-0.18,0.21-0.35,0.3-0.53c0-0.01,0.01-0.02,0.02-0.04c0.08-0.18,0.17-0.36,0.24-0.54
				c0.02-0.03,0.03-0.06,0.04-0.09c0.08-0.18,0.15-0.35,0.21-0.54c0.04-0.09,0.07-0.19,0.1-0.28c0.12-0.38,0.22-0.77,0.29-1.17
				c0.03-0.13,0.05-0.27,0.07-0.41c0.06-0.42,0.09-0.86,0.09-1.29c0-0.16-0.01-0.33-0.02-0.49c0-0.07-0.01-0.15-0.02-0.22
				c0-0.01,0-0.01,0-0.02c-0.02-0.28-0.05-0.55-0.1-0.82c-0.02-0.11-0.04-0.23-0.07-0.34c0-0.02,0-0.04-0.01-0.05
				c-0.02-0.1-0.04-0.2-0.07-0.3c-0.18-0.76-0.46-1.48-0.83-2.18c-0.07-0.14-0.14-0.28-0.22-0.41c-0.11-0.21-0.24-0.4-0.38-0.6
				c-0.1-0.15-0.21-0.31-0.32-0.45c-0.05-0.08-0.11-0.15-0.17-0.22c-0.12-0.15-0.25-0.31-0.38-0.46c-0.15-0.18-0.32-0.35-0.49-0.53
				c-0.28-0.28-0.56-0.54-0.86-0.79s-0.62-0.49-0.96-0.72c-0.17-0.11-0.34-0.23-0.51-0.33c-0.17-0.11-0.34-0.22-0.53-0.31
				c-0.18-0.11-0.36-0.2-0.54-0.29c-0.73-0.37-1.5-0.68-2.31-0.93c-0.19-0.06-0.39-0.11-0.59-0.17c-0.11-0.03-0.23-0.06-0.34-0.08
				c-0.11-0.03-0.24-0.06-0.36-0.08c-0.21-0.05-0.43-0.09-0.65-0.12c-0.18-0.03-0.35-0.06-0.54-0.08c-0.09-0.02-0.18-0.02-0.28-0.03
				c-0.17-0.02-0.34-0.05-0.52-0.05c-0.45-0.04-0.91-0.06-1.37-0.06c-7.41,0-13.41,4.99-13.41,11.14v2.68l-0.2-1.09
				c-0.37-1.1-0.57-2.27-0.57-3.47c0-6.9,6.48-12.5,14.48-12.5c2.59,0,5.03,0.59,7.13,1.62
				C2606.61,2072.91,2609.57,2076.95,2609.59,2081.59z"/>
			<path class="st19" d="M2576.8,2095.07c-0.67,1.16-0.73,2.4-0.18,2.88l0.87,0.76l3.9,3.17v5.13l-1.26-1.02
				c-0.01-0.01-0.01-0.01-0.02-0.01v-0.01h-0.01l-0.87-0.78c-0.04-0.03-0.08-0.06-0.13-0.09c-0.69-0.39-1.82,0.29-2.54,1.54
				c-0.67,1.16-0.73,2.4-0.18,2.88l0.6,0.52l0.28,0.24l0.44,0.37l2.26,1.86l-7.28,4.75v-21.33c0-0.18,0-0.36,0.01-0.54
				c0.07-2.05,0.52-3.43,1.01-4.34c0.21-0.39,0.42-0.73,0.6-0.98c0.37-0.52,0.64-0.8,0.64-0.8l1.02-0.74l4.51-2.95l0.16-0.1
				l0.57-0.37l0.2,1.09v9.04l-1.03-0.83l-0.9-0.8c-0.04-0.03-0.08-0.06-0.13-0.09C2578.66,2093.14,2577.52,2093.82,2576.8,2095.07z"
				/>
			<path class="st33" d="M2581.2,2085.11l-0.57,0.37v-3.83C2580.62,2082.85,2580.82,2084.01,2581.2,2085.11z"/>
			<linearGradient id="SVGID_21_" gradientUnits="userSpaceOnUse" x1="2609.1328" y1="2063.1035" x2="2627.1536" y2="2079.3293">
				<stop  offset="5.586592e-03" style="stop-color:#A17443"/>
				<stop  offset="0.3847" style="stop-color:#A47645"/>
				<stop  offset="0.6127" style="stop-color:#AD7D4C"/>
				<stop  offset="0.8007" style="stop-color:#BC8A58"/>
				<stop  offset="0.966" style="stop-color:#D39F6B"/>
				<stop  offset="1" style="stop-color:#D9A571"/>
			</linearGradient>
			<path class="st35" d="M2638.21,2065.05l-28.62,33.79v-17.24c-0.02-4.65-2.98-8.69-7.35-10.82v-0.01l25.42-22.13
				c4.45-3.86,10.9,7.62,10.9,7.62c0.01,0.02,0.02,0.04,0.03,0.05C2641.29,2061.36,2638.21,2065.05,2638.21,2065.05z"/>
			<path class="st19" d="M2580.36,2094.4l-0.88-0.78c-0.04-0.03-0.08-0.06-0.13-0.09c-0.69-0.39-1.82,0.29-2.54,1.54
				c-0.67,1.16-0.73,2.4-0.18,2.88l0.87,0.76l0.44,0.36c-0.73,0.57-1.48,0.8-2.07,0.52c-1.13-0.53-1.25-2.68-0.26-4.8
				s2.71-3.41,3.84-2.88C2580.16,2092.24,2580.47,2093.2,2580.36,2094.4z"/>
			<path class="st19" d="M2580.13,2105.97l-0.88-0.78c-0.04-0.03-0.08-0.06-0.13-0.09c-0.69-0.39-1.82,0.29-2.54,1.54
				c-0.67,1.16-0.73,2.4-0.18,2.88l0.87,0.76l0.44,0.37c-0.73,0.58-1.5,0.81-2.1,0.53c-1.14-0.53-1.26-2.69-0.26-4.82
				s2.72-3.44,3.86-2.9C2579.94,2103.77,2580.25,2104.76,2580.13,2105.97z"/>
			<linearGradient id="SVGID_22_" gradientUnits="userSpaceOnUse" x1="2590.9314" y1="2099.6165" x2="2609.5898" y2="2099.6165">
				<stop  offset="0" style="stop-color:#DFA370"/>
				<stop  offset="0.0176" style="stop-color:#E2A874"/>
				<stop  offset="0.1333" style="stop-color:#F5C18E"/>
				<stop  offset="0.2045" style="stop-color:#FBCB98"/>
				<stop  offset="0.3087" style="stop-color:#F2C08D"/>
				<stop  offset="0.4786" style="stop-color:#DAA672"/>
				<stop  offset="0.657" style="stop-color:#BC8551"/>
				<stop  offset="0.7872" style="stop-color:#AF7D4A"/>
				<stop  offset="1" style="stop-color:#9E7242"/>
			</linearGradient>
			<path class="st36" d="M2609.59,2081.65v23.45c0,0.77-0.08,1.52-0.24,2.24v-6.51c0.01-0.24,0.01-0.47,0-0.7
				c0.01-0.05,0-0.09,0-0.13c-0.03-1.83-0.43-3.34-1.13-4.22c-0.31-0.39-0.69-0.66-1.13-0.77c-0.75-0.2-1.58,0.08-2.4,0.73
				c-1.58,1.25-3.11,3.88-3.99,7.13c-0.47,1.78-0.68,3.49-0.66,4.98l-0.01,8.98v0.01h-0.02c-1.54,0.48-3.2,0.74-4.93,0.74
				c-1.45,0-2.84-0.18-4.16-0.52l-0.01-11.33c0.39-0.87,0.41-1.73,0.08-2.16l0.23-0.64l-0.31-1.45l-0.01-7.3v-0.57
				c1.32,0.34,2.72,0.53,4.17,0.53c1.77,0,3.46-0.27,5.01-0.78c1.84-0.58,3.51-1.48,4.91-2.62c0.5-0.4,0.96-0.83,1.39-1.29
				c0.15-0.15,0.28-0.31,0.41-0.47c0.05-0.06,0.1-0.11,0.15-0.18c0.38-0.46,0.71-0.93,1.01-1.43c0.08-0.13,0.15-0.26,0.22-0.39
				c0.02-0.02,0.03-0.05,0.04-0.07c0.08-0.14,0.15-0.28,0.21-0.42c0.05-0.11,0.11-0.21,0.15-0.32c0.08-0.16,0.15-0.32,0.21-0.49
				c0.08-0.2,0.15-0.4,0.22-0.6c0.01-0.01,0.01-0.02,0.01-0.03c0.06-0.18,0.11-0.35,0.16-0.54c0.02-0.05,0.03-0.11,0.05-0.16
				c0.05-0.2,0.1-0.4,0.14-0.6c0-0.02,0.01-0.02,0.01-0.03c0.03-0.18,0.06-0.35,0.08-0.54
				C2609.55,2082.69,2609.59,2082.17,2609.59,2081.65z"/>
			<path class="st19" d="M2590.94,2105.74c-0.5,1.09-1.42,1.82-2,1.55c-0.06-0.03-0.11-0.06-0.16-0.11l-0.09-0.09l-1.39,0.95
				l-1.55-1.03c-0.23,0.02-0.44-0.01-0.64-0.1c-0.64-0.3-0.93-1.16-0.86-2.27c0.05-0.8,0.28-1.71,0.72-2.63
				c0.23-0.49,0.49-0.94,0.77-1.33l0.01-0.02h0.01v-0.01c0.99-1.36,2.21-2.09,3.06-1.69l1.94,1.55l0.18,0.98l-0.01-7.3v-0.57
				l-0.6,0.41l-5.73,3.93l-0.32,0.22c0,0-1.69,1.19-2.48,4.01l-0.01,0.01c-0.24,0.86-0.4,1.87-0.4,3.05v18.37l9.55-6.55
				L2590.94,2105.74z M2590.11,2116.58c-0.51,1.09-1.42,1.82-2,1.55c-0.06-0.03-0.11-0.06-0.16-0.11l-0.05-0.05l-0.04-0.04
				l-1.39,0.95l-1.55-1.03c-0.23,0.02-0.44-0.01-0.64-0.1c-0.64-0.3-0.93-1.16-0.86-2.27c0.05-0.8,0.28-1.71,0.72-2.63
				c0.23-0.49,0.49-0.94,0.77-1.33l0.01-0.02h0.01v-0.01c0.99-1.36,2.21-2.09,3.06-1.69l1.94,1.55l0.18,0.98l0.31,1.45l-0.23,0.64
				C2590.53,2114.85,2590.5,2115.7,2590.11,2116.58z"/>
			<polygon class="st3" points="2345.71,2527.87 2339.62,2533.13 2298.69,2497.48 2302.42,2490.09 			"/>
			<linearGradient id="SVGID_23_" gradientUnits="userSpaceOnUse" x1="2311.7834" y1="2523.7817" x2="2319.1714" y2="2515.283">
				<stop  offset="0" style="stop-color:#FDD49E"/>
				<stop  offset="0.3" style="stop-color:#FDD49E"/>
				<stop  offset="0.323" style="stop-color:#F9CF9A"/>
				<stop  offset="0.6193" style="stop-color:#C89B68"/>
				<stop  offset="0.8553" style="stop-color:#AE7F4F"/>
				<stop  offset="1" style="stop-color:#A47546"/>
			</linearGradient>
			<polygon class="st37" points="2339.62,2533.13 2331.05,2540.53 2293.46,2507.83 2298.69,2497.48 			"/>
			<polygon class="st20" points="2331.05,2540.53 2310.63,2558.16 2280.88,2532.7 2293.46,2507.83 			"/>
			<linearGradient id="SVGID_24_" gradientUnits="userSpaceOnUse" x1="2294.0115" y1="2547.4348" x2="2295.8533" y2="2545.3159">
				<stop  offset="0" style="stop-color:#A47546"/>
				<stop  offset="0.2745" style="stop-color:#C79A67"/>
				<stop  offset="0.5436" style="stop-color:#E4B985"/>
				<stop  offset="0.792" style="stop-color:#F6CD98"/>
				<stop  offset="1" style="stop-color:#FDD49E"/>
			</linearGradient>
			<polygon class="st38" points="2310.63,2558.16 2308.72,2559.8 2279.72,2535.01 2280.88,2532.7 			"/>
			<polygon class="st3" points="2382.51,2432.39 2382.48,2437.81 2382.25,2495.34 2331.46,2450.44 2367.3,2419.49 			"/>
			<linearGradient id="SVGID_25_" gradientUnits="userSpaceOnUse" x1="2374.8252" y1="2426.0271" x2="2376.5415" y2="2424.0525">
				<stop  offset="0" style="stop-color:#A47546"/>
				<stop  offset="0.2215" style="stop-color:#9B7046"/>
				<stop  offset="0.5826" style="stop-color:#836145"/>
				<stop  offset="1" style="stop-color:#634E42"/>
			</linearGradient>
			<polygon class="st39" points="2382.52,2429.25 2382.51,2432.39 2367.3,2419.49 2368.84,2418.16 			"/>
			<polygon class="st19" points="2368.81,2660.42 2401.03,2631.98 2407.67,2637.74 2374.65,2666.52 			"/>
			<polygon class="st3" points="2365.42,2656.89 2397.61,2629.02 2401.03,2631.98 2368.81,2660.42 			"/>
			<path class="st3" d="M2389.27,2621.8l-31.3,27.32l-0.28-0.3l-5.18,1.2c-2.07-11.36-4.64-18.99-6.65-18.78
				c-0.07,0.01-0.13,0.02-0.19,0.05l-1.21,0.44c-1.28-3.55-2.53-5.49-3.64-5.38c-0.07,0.01-0.14,0.02-0.2,0.05h-0.01l-10.35,2.64
				l-0.13,0.03c-0.28,0.08-0.54,0.28-0.79,0.63l-0.19,0.31l-0.53,0.84c-0.63,0.94-1.13,2.76-1.47,5.3l-1.31,0.4
				c-0.02,0-0.04,0.01-0.06,0.02l-0.04,0.01c-1.97,0.47-2.85,8.63-2.48,20.25l-6.16,1.42c-1-1.36-2.7-2.26-4.63-2.26
				c-1.58,0-3.02,0.61-4.03,1.58l0.18-0.16l-13.5-11.89l65.01-56.29l0.93,0.79v7.35L2389.27,2621.8z"/>
			<linearGradient id="SVGID_26_" gradientUnits="userSpaceOnUse" x1="2381.3484" y1="2643.1594" x2="2374.1809" y2="2634.9141">
				<stop  offset="0" style="stop-color:#DFA370"/>
				<stop  offset="0.2811" style="stop-color:#D49A67"/>
				<stop  offset="0.7381" style="stop-color:#B78453"/>
				<stop  offset="1" style="stop-color:#A47546"/>
			</linearGradient>
			<polygon class="st40" points="2397.61,2629.02 2365.43,2656.89 2357.97,2649.12 2389.27,2621.8 			"/>
			<path class="st3" d="M2370.07,2506.83l-3.19,2.76l-3.01,2.59l-3.67,3.18h-0.01c-3.49,0.54-5.24-1.04-5.24-1.04l-9.83-8.46
				c-1.14-0.99-1.83-1.98-2.2-2.92c0.7-1.89,2.2-3.14,2.2-3.14l3.32-2.67c0,0,6.08-4.97,11.59,0l9.05,8.34
				C2369.08,2505.47,2369.61,2505.97,2370.07,2506.83z"/>
			<polygon class="st5" points="1693.66,1771.7 1693.66,1774.34 1672.13,1755.38 1672.13,1753.18 1672.4,1753.41 			"/>
			<path class="st41" d="M1767.89,1665.62c-0.64,2.17-2.48,3.6-2.48,3.6l-2.95,2.5c0,0-0.04,0.03-0.11,0.09
				c-0.04,0.03-0.08,0.07-0.14,0.11c-0.53,0.41-1.87,1.32-3.65,1.74c-0.15,0.04-0.31,0.07-0.47,0.1l9.72-8.37
				C1767.85,1665.47,1767.87,1665.54,1767.89,1665.62z"/>
			<path class="st3" d="M1718.95,1709.81c0,2.04-1.95,3.71-4.36,3.71c-0.77,0-1.48-0.17-2.1-0.46c-0.77-0.37-1.4-0.92-1.8-1.59
				c-0.3-0.5-0.47-1.06-0.47-1.66c0-2.05,1.96-3.72,4.37-3.72c0.69,0,1.33,0.14,1.91,0.38c0.8,0.32,1.45,0.85,1.88,1.51
				C1718.74,1708.52,1718.95,1709.15,1718.95,1709.81z"/>
			<linearGradient id="SVGID_27_" gradientUnits="userSpaceOnUse" x1="1710.2192" y1="1719.9113" x2="1718.9515" y2="1719.9113">
				<stop  offset="0" style="stop-color:#A47144"/>
				<stop  offset="2.210779e-03" style="stop-color:#A57245"/>
				<stop  offset="0.0907" style="stop-color:#D19F6E"/>
				<stop  offset="0.1612" style="stop-color:#F0BE8C"/>
				<stop  offset="0.2045" style="stop-color:#FBCB98"/>
				<stop  offset="0.238" style="stop-color:#F2C08D"/>
				<stop  offset="0.2926" style="stop-color:#DAA672"/>
				<stop  offset="0.35" style="stop-color:#BC8551"/>
				<stop  offset="0.3539" style="stop-color:#BD8652"/>
				<stop  offset="0.5582" style="stop-color:#EABB85"/>
				<stop  offset="0.66" style="stop-color:#FCD19B"/>
				<stop  offset="0.6845" style="stop-color:#FBCA92"/>
				<stop  offset="0.7344" style="stop-color:#FAC085"/>
				<stop  offset="0.8047" style="stop-color:#F9BB7E"/>
				<stop  offset="1" style="stop-color:#F9B97C"/>
			</linearGradient>
			<path class="st42" d="M1718.95,1709.81v16.48c0,2.05-1.95,3.71-4.36,3.71c-2.41,0-4.37-1.66-4.37-3.71v-16.48
				c0,0.6,0.17,1.16,0.47,1.66c0.4,0.67,1.03,1.22,1.8,1.59c0.62,0.29,1.34,0.46,2.1,0.46
				C1717,1713.52,1718.95,1711.86,1718.95,1709.81z"/>
			<linearGradient id="SVGID_28_" gradientUnits="userSpaceOnUse" x1="1712.1417" y1="1709.8093" x2="1717.0352" y2="1709.8093">
				<stop  offset="0" style="stop-color:#A47144"/>
				<stop  offset="2.210779e-03" style="stop-color:#A57245"/>
				<stop  offset="0.0907" style="stop-color:#D19F6E"/>
				<stop  offset="0.1612" style="stop-color:#F0BE8C"/>
				<stop  offset="0.2045" style="stop-color:#FBCB98"/>
				<stop  offset="0.238" style="stop-color:#F2C08D"/>
				<stop  offset="0.2926" style="stop-color:#DAA672"/>
				<stop  offset="0.35" style="stop-color:#BC8551"/>
				<stop  offset="0.3539" style="stop-color:#BD8652"/>
				<stop  offset="0.5582" style="stop-color:#EABB85"/>
				<stop  offset="0.66" style="stop-color:#FCD19B"/>
				<stop  offset="0.6845" style="stop-color:#FBCA92"/>
				<stop  offset="0.7344" style="stop-color:#FAC085"/>
				<stop  offset="0.8047" style="stop-color:#F9BB7E"/>
				<stop  offset="1" style="stop-color:#F9B97C"/>
			</linearGradient>
			<ellipse class="st43" cx="1714.59" cy="1709.81" rx="2.45" ry="2.08"/>
			<linearGradient id="SVGID_29_" gradientUnits="userSpaceOnUse" x1="1727.8445" y1="1730.0287" x2="1736.7909" y2="1730.0287">
				<stop  offset="0" style="stop-color:#A47144"/>
				<stop  offset="2.210779e-03" style="stop-color:#A57245"/>
				<stop  offset="0.0907" style="stop-color:#D19F6E"/>
				<stop  offset="0.1612" style="stop-color:#F0BE8C"/>
				<stop  offset="0.2045" style="stop-color:#FBCB98"/>
				<stop  offset="0.2725" style="stop-color:#F2C08D"/>
				<stop  offset="0.3835" style="stop-color:#DAA672"/>
				<stop  offset="0.5" style="stop-color:#BC8551"/>
				<stop  offset="0.502" style="stop-color:#BD8652"/>
				<stop  offset="0.6075" style="stop-color:#EABB85"/>
				<stop  offset="0.66" style="stop-color:#FCD19B"/>
				<stop  offset="0.6845" style="stop-color:#FBCA92"/>
				<stop  offset="0.7344" style="stop-color:#FAC085"/>
				<stop  offset="0.8047" style="stop-color:#F9BB7E"/>
				<stop  offset="1" style="stop-color:#F9B97C"/>
			</linearGradient>
			<path class="st44" d="M1736.79,1731.17c0,0.54-0.13,1.06-0.38,1.53c-0.69-1.35-2.27-2.28-4.1-2.28c-1.84,0-3.41,0.93-4.09,2.28
				c-0.24-0.47-0.37-0.99-0.37-1.53c0-2.1,2-3.8,4.47-3.8C1734.79,1727.36,1736.79,1729.06,1736.79,1731.17z"/>
			<path class="st4" d="M1736.42,1732.7c-0.7,1.34-2.27,2.27-4.1,2.27c-1.83,0-3.41-0.93-4.09-2.27c0.68-1.35,2.26-2.28,4.09-2.28
				C1734.15,1730.42,1735.73,1731.35,1736.42,1732.7z"/>
			<path class="st3" d="M1729.21,1700.53c0,2.04-1.95,3.71-4.36,3.71c-0.63,0-1.22-0.11-1.76-0.31c-0.11-0.04-0.21-0.08-0.32-0.14
				c-0.15-0.06-0.28-0.14-0.41-0.21c-0.1-0.06-0.19-0.12-0.28-0.18c-0.09-0.06-0.18-0.12-0.25-0.19c-0.18-0.15-0.35-0.31-0.5-0.49
				c-0.07-0.08-0.12-0.15-0.18-0.23c-0.2-0.26-0.35-0.55-0.46-0.85c-0.04-0.11-0.08-0.21-0.1-0.32c-0.04-0.13-0.06-0.27-0.08-0.41
				c-0.02-0.12-0.02-0.24-0.02-0.37c0-2.05,1.96-3.72,4.37-3.72c0.83,0,1.6,0.19,2.26,0.54c0.75,0.39,1.35,0.96,1.71,1.65
				C1729.08,1699.46,1729.21,1699.98,1729.21,1700.53z"/>
			<linearGradient id="SVGID_30_" gradientUnits="userSpaceOnUse" x1="1720.4822" y1="1710.6281" x2="1729.2144" y2="1710.6281">
				<stop  offset="0" style="stop-color:#A47144"/>
				<stop  offset="2.210779e-03" style="stop-color:#A57245"/>
				<stop  offset="0.0907" style="stop-color:#D19F6E"/>
				<stop  offset="0.1612" style="stop-color:#F0BE8C"/>
				<stop  offset="0.2045" style="stop-color:#FBCB98"/>
				<stop  offset="0.238" style="stop-color:#F2C08D"/>
				<stop  offset="0.2926" style="stop-color:#DAA672"/>
				<stop  offset="0.35" style="stop-color:#BC8551"/>
				<stop  offset="0.3539" style="stop-color:#BD8652"/>
				<stop  offset="0.5582" style="stop-color:#EABB85"/>
				<stop  offset="0.66" style="stop-color:#FCD19B"/>
				<stop  offset="0.6845" style="stop-color:#FBCA92"/>
				<stop  offset="0.7344" style="stop-color:#FAC085"/>
				<stop  offset="0.8047" style="stop-color:#F9BB7E"/>
				<stop  offset="1" style="stop-color:#F9B97C"/>
			</linearGradient>
			<path class="st45" d="M1729.21,1700.53v16.48c0,2.05-1.95,3.71-4.36,3.71c-2.41,0-4.37-1.66-4.37-3.71v-16.48
				c0,0.12,0.01,0.24,0.02,0.37c0.02,0.15,0.04,0.28,0.08,0.41c0.02,0.11,0.06,0.21,0.1,0.32c0.11,0.3,0.26,0.59,0.46,0.85
				c0.06,0.08,0.11,0.15,0.18,0.23c0.15,0.18,0.31,0.34,0.5,0.49c0.08,0.07,0.16,0.13,0.25,0.19c0.09,0.06,0.18,0.12,0.28,0.18
				c0.13,0.08,0.27,0.15,0.41,0.21c0.11,0.05,0.21,0.1,0.32,0.14c0.54,0.2,1.13,0.31,1.76,0.31
				C1727.26,1704.24,1729.21,1702.57,1729.21,1700.53z"/>
			<linearGradient id="SVGID_31_" gradientUnits="userSpaceOnUse" x1="1722.4008" y1="1700.5249" x2="1727.2942" y2="1700.5249">
				<stop  offset="0" style="stop-color:#A47144"/>
				<stop  offset="2.210779e-03" style="stop-color:#A57245"/>
				<stop  offset="0.0907" style="stop-color:#D19F6E"/>
				<stop  offset="0.1612" style="stop-color:#F0BE8C"/>
				<stop  offset="0.2045" style="stop-color:#FBCB98"/>
				<stop  offset="0.238" style="stop-color:#F2C08D"/>
				<stop  offset="0.2926" style="stop-color:#DAA672"/>
				<stop  offset="0.35" style="stop-color:#BC8551"/>
				<stop  offset="0.3539" style="stop-color:#BD8652"/>
				<stop  offset="0.5582" style="stop-color:#EABB85"/>
				<stop  offset="0.66" style="stop-color:#FCD19B"/>
				<stop  offset="0.6845" style="stop-color:#FBCA92"/>
				<stop  offset="0.7344" style="stop-color:#FAC085"/>
				<stop  offset="0.8047" style="stop-color:#F9BB7E"/>
				<stop  offset="1" style="stop-color:#F9B97C"/>
			</linearGradient>
			<ellipse class="st46" cx="1724.85" cy="1700.52" rx="2.45" ry="2.08"/>
			<path class="st1" d="M1718.28,1753.13"/>
			<linearGradient id="SVGID_32_" gradientUnits="userSpaceOnUse" x1="1718.2781" y1="1755.1079" x2="1719.5026" y2="1755.1079">
				<stop  offset="0" style="stop-color:#DFA270"/>
				<stop  offset="1" style="stop-color:#846245"/>
			</linearGradient>
			<path class="st47" d="M1719.5,1750.81v6.29c-0.04,1.35-1.22,2.3-1.22,2.3v-6.27C1718.28,1753.14,1719.47,1752.17,1719.5,1750.81z
				"/>
			<polygon class="st4" points="1706.53,1763.64 1705.9,1770 1697.52,1777.19 1697.5,1771.7 			"/>
			<linearGradient id="SVGID_33_" gradientUnits="userSpaceOnUse" x1="1693.6581" y1="1774.5583" x2="1697.5151" y2="1774.5583">
				<stop  offset="0" style="stop-color:#FDD39E"/>
				<stop  offset="0.5" style="stop-color:#846245"/>
				<stop  offset="1" style="stop-color:#DFA270"/>
			</linearGradient>
			<path class="st48" d="M1697.52,1777.19l-0.37,0.22l-3.49-3.07v-2.64c0,0,1.82,1.84,3.84,0L1697.52,1777.19z"/>
			<linearGradient id="SVGID_34_" gradientUnits="userSpaceOnUse" x1="1671.1044" y1="1753.2788" x2="1672.1298" y2="1753.2788">
				<stop  offset="0" style="stop-color:#846245"/>
				<stop  offset="1" style="stop-color:#FDD39E"/>
			</linearGradient>
			<path class="st49" d="M1672.13,1753.18v2.2l-1.03-0.9v-3.31C1671.1,1751.84,1671.37,1752.54,1672.13,1753.18z"/>
			<path class="st3" d="M1673.08,1747.01l-0.49,1.26h-0.01c0,0-1.46,1.34-1.48,2.89v3.33l-3.31-2.92L1673.08,1747.01z"/>
			<path class="st3" d="M1692.49,1730.28L1692.49,1730.28l-0.01,0.02l-0.35,0.9l-16.64,14.43c-0.6,0.08-1.07,0.26-1.07,0.26
				c-0.02,0.01-0.05,0.02-0.07,0.03l1.3-1.13l4.54-3.9L1692.49,1730.28z"/>
			<path class="st3" d="M1718.28,1748.48l-0.51-0.45v2.71l-0.88,2.4l-3.67,0.61l-2.33-1.91v-3.37l0.93-2.38l0.71-0.11
				c0.09-0.06,0.19-0.11,0.3-0.15c0,0,0.73-0.29,1.53-0.29c0.18,0,0.35,0.02,0.51,0.04l0.11-0.01l-16-14.17l-0.11-0.09v2.5
				l-0.88,2.4l-3.67,0.61l-2.33-1.91v-3.37l0.14-0.36l-16.64,14.43c0.15-0.02,0.3-0.03,0.46-0.03c0.18,0,0.35,0.02,0.51,0.04
				l1.08-0.08l1.81,1.91v3.33l-0.88,2.4l-3.67,0.61l-2.33-1.91v-3.37l0.1-0.26c0,0-1.46,1.34-1.48,2.89v0.02
				c0,0.66,0.27,1.36,1.03,2.01l0.27,0.23l21.26,18.29c0,0,1.82,1.84,3.84,0l9.03-8.07l0.46-4.62l1.32-1.08l2.39,1.98l7.58-6.77
				c0,0,1.19-0.96,1.22-2.33v-0.01C1719.51,1750.11,1719.21,1749.3,1718.28,1748.48z M1698.85,1767.33l-0.88,2.4l-3.67,0.61
				l-2.33-1.91v-3.37l0.93-2.38l0.71-0.11c0.09-0.06,0.19-0.11,0.3-0.15c0,0,0.73-0.29,1.53-0.29c0.18,0,0.35,0.02,0.51,0.04
				l1.08-0.08l1.81,1.91V1767.33z"/>
			<polygon class="st3" points="1705.9,1770 1705.31,1775.97 1705.31,1778.42 1701.67,1781.4 1697.15,1777.41 1697.52,1777.19 			
				"/>
			<path class="st3" d="M1802.18,1737.73l-53.95-47.12l-4.81-4.19l-14.6,12.57c0.26,0.47,0.4,0.99,0.4,1.54v16.48
				c0,2.05-1.95,3.71-4.36,3.71c-2.41,0-4.37-1.66-4.37-3.71v-10.84l-2.1,1.81c0.37,0.54,0.57,1.16,0.57,1.83v16.48
				c0,2.05-1.95,3.71-4.36,3.71c-2.41,0-4.37-1.66-4.37-3.71v-11.28l-16.02,13.8c0.28-0.08,0.77-0.21,1.27-0.21
				c0.18,0,0.35,0.02,0.51,0.04l1.08-0.08l1.81,1.91v0.83l0.11,0.09l16,14.17l0.96-0.08l1.81,1.91v0.62l0.51,0.45
				c0.93,0.83,1.23,1.63,1.22,2.33v6.3c-0.04,1.35-1.22,2.3-1.22,2.3l-4.76,4.08c0.38,0.05,0.78,0.15,1.2,0.31l0.5-0.42l2.6,2.01
				l-0.24,3.02l0.77-0.63c0.84-0.31,2.03,0.83,2.66,2.54c0.33,0.9,0.44,1.79,0.34,2.46c4.97-1.06,4.72,2.94,4.72,2.94v2.8
				c0,2.27-3.09,2.46-3.09,2.46h-6.4l-0.2,2.46v10.9l0.57,0.5l2.95-2.55c-0.04-1.57,1.16-2.49,1.16-2.49s0.01,0,0.02-0.01
				l20.04-17.4c0,0,0.05-0.04,0.12-0.11c0.02-0.02,0.05-0.04,0.07-0.05c0.21-0.16,0.55-0.4,0.97-0.6c0.08-0.05,0.17-0.08,0.26-0.11
				c0.15-0.06,0.3-0.11,0.45-0.15c0.11-0.03,0.23-0.05,0.34-0.07c0.12-0.02,0.25-0.03,0.38-0.03c0.15,0,0.28,0.01,0.43,0.04
				l7.52-6.5c0,0-0.08-1.46,1.52-2.89c0.02-0.02,0.05-0.04,0.07-0.06c0,0,0.01-0.01,0.02-0.01c0-0.01,0.02-0.02,0.03-0.03l0.01-0.01
				l19.35-16.8c1.42-1.24,2.66-1.38,3.39-1.29l8.14-7.03v-0.01l1.42-2.83l5.03-1.88l0.73,0.69l1.58-1.12
				c0.14-0.11,0.3-0.19,0.47-0.24c1.12-0.3,2.44,1,2.95,2.92c0.44,1.61,0.15,3.15-0.63,3.76l3.18,2.84L1802.18,1737.73z
				 M1736.42,1732.7c-0.7,1.34-2.27,2.27-4.1,2.27c-1.83,0-3.41-0.93-4.09-2.27c-0.24-0.47-0.37-0.99-0.37-1.53
				c0-2.1,2-3.8,4.47-3.8c2.47,0,4.48,1.7,4.48,3.8C1736.79,1731.71,1736.66,1732.23,1736.42,1732.7z"/>
			<linearGradient id="SVGID_35_" gradientUnits="userSpaceOnUse" x1="1695.9799" y1="1727.3953" x2="1694.2787" y2="1725.4384">
				<stop  offset="0" style="stop-color:#A47546"/>
				<stop  offset="0.2215" style="stop-color:#9B7046"/>
				<stop  offset="0.5826" style="stop-color:#836145"/>
				<stop  offset="1" style="stop-color:#634E42"/>
			</linearGradient>
			<path class="st50" d="M1710.22,1711.87v3.15l-16.02,13.8c-0.01,0-0.02,0.01-0.02,0.01c-0.15,0.05-0.24,0.08-0.24,0.08
				c-0.11,0.04-0.21,0.09-0.3,0.15l-0.71,0.11l-0.44,1.11v0.01l-0.01,0.01l-12.29,10.58l-1.71-1.71l17.56-15.1L1710.22,1711.87z"/>
			<linearGradient id="SVGID_36_" gradientUnits="userSpaceOnUse" x1="1720.0476" y1="1706.5555" x2="1718.4792" y2="1704.7512">
				<stop  offset="0" style="stop-color:#A47546"/>
				<stop  offset="0.2215" style="stop-color:#9B7046"/>
				<stop  offset="0.5826" style="stop-color:#836145"/>
				<stop  offset="1" style="stop-color:#634E42"/>
			</linearGradient>
			<path class="st51" d="M1720.48,1703.05v3.13l-2.1,1.81c-0.43-0.66-1.09-1.19-1.88-1.51L1720.48,1703.05z"/>
			<linearGradient id="SVGID_37_" gradientUnits="userSpaceOnUse" x1="1736.0684" y1="1692.8069" x2="1734.46" y2="1690.9567">
				<stop  offset="0" style="stop-color:#A47546"/>
				<stop  offset="0.2215" style="stop-color:#9B7046"/>
				<stop  offset="0.5826" style="stop-color:#836145"/>
				<stop  offset="1" style="stop-color:#634E42"/>
			</linearGradient>
			<path class="st52" d="M1743.42,1686.42l-14.6,12.57c-0.36-0.68-0.96-1.26-1.71-1.65l14.52-12.49L1743.42,1686.42z"/>
			<linearGradient id="SVGID_38_" gradientUnits="userSpaceOnUse" x1="1762.192" y1="1670.2837" x2="1760.6245" y2="1668.4805">
				<stop  offset="0" style="stop-color:#A47546"/>
				<stop  offset="0.2215" style="stop-color:#9B7046"/>
				<stop  offset="0.5826" style="stop-color:#836145"/>
				<stop  offset="1" style="stop-color:#634E42"/>
			</linearGradient>
			<path class="st53" d="M1767.82,1665.39l-9.72,8.37c-0.23,0.04-0.47,0.08-0.71,0.1c-0.08,0.01-0.16,0.02-0.24,0.02
				c-0.16,0.01-0.32,0.02-0.48,0.02c-0.18,0-0.35-0.01-0.52-0.02c-0.13-0.01-0.26-0.02-0.4-0.04c-0.05-0.01-0.1-0.02-0.15-0.02
				c-0.14-0.02-0.28-0.05-0.42-0.08c-0.15-0.02-0.28-0.05-0.42-0.09c-0.02-0.01-0.05-0.02-0.08-0.02l11.93-10.27
				C1767.2,1664.06,1767.59,1664.74,1767.82,1665.39z"/>
			<path class="st54" d="M1680.2,1740.88l-4.54,3.9c0,0,0-3.18,2.82-5.61L1680.2,1740.88z"/>
			<linearGradient id="SVGID_39_" gradientUnits="userSpaceOnUse" x1="1895.277" y1="1577.7213" x2="1896.5209" y2="1576.2904">
				<stop  offset="0" style="stop-color:#A47546"/>
				<stop  offset="0.2215" style="stop-color:#9B7046"/>
				<stop  offset="0.5826" style="stop-color:#836145"/>
				<stop  offset="1" style="stop-color:#634E42"/>
			</linearGradient>
			<path class="st55" d="M1908.6,1587.88l-0.54,0.52l-0.24,0.23l-25.22-22.13c0,0,1.1-1.09,2.43-0.19l24.11,21.25
				C1908.95,1587.61,1908.76,1587.72,1908.6,1587.88z"/>
			<linearGradient id="SVGID_40_" gradientUnits="userSpaceOnUse" x1="1882.0585" y1="1566.6464" x2="1882.0585" y2="1565.327">
				<stop  offset="0" style="stop-color:#A47546"/>
				<stop  offset="0.2215" style="stop-color:#9B7046"/>
				<stop  offset="0.5826" style="stop-color:#836145"/>
				<stop  offset="1" style="stop-color:#634E42"/>
			</linearGradient>
			<path class="st56" d="M1885.04,1566.31c-1.33-0.9-2.43,0.19-2.43,0.19s-1.48-1.47-3.53,0.15
				C1879.31,1566.43,1881.99,1564.01,1885.04,1566.31z"/>
			<polygon class="st5" points="1822.74,1615.1 1822.74,1606.45 1832.89,1606.37 			"/>
			<polygon class="st54" points="1838.67,1601.4 1828.41,1601.5 1822.74,1606.45 1832.89,1606.37 			"/>
			<path class="st3" d="M1863.86,1678.2l-5.66-5.17l-0.58,0.12c-1.87,0.5-4.31-2.57-5.46-6.86c-0.96-3.6-0.71-6.9,0.48-8.17
				l0.02-0.02l1.16-1.54v-13.96l2.83-2.23c-0.05-0.13-0.11-0.28-0.15-0.41c-0.11-0.32-0.22-0.66-0.31-1
				c-0.75-2.81-0.53-5.36,0.47-6.08v-0.01l0.57-0.48l0.05-3.27c0-0.59,0.11-0.93,0.29-1.1l0.09-0.08l2-1.68l-16.51-14.3l-0.91-0.79
				v2.76l-0.88,2.4l-3.67,0.61l-2.33-1.91v-3.37l0.1-0.26l-28.27,24.6c0.21-0.04,0.46-0.07,0.71-0.07c0.18,0,0.35,0.02,0.51,0.04
				l1.08-0.08l1.81,1.91v3.33l-0.88,2.4l-3.67,0.61l-2.33-1.91v-3.37l0.28-0.7l-0.81,0.7c-1.08,0.94-1.45,1.86-1.44,2.67
				c0.01,1.65,1.54,2.85,1.54,2.85l46.35,40.47c0,0,2.89,3.05,6.42,0l7.42-6.41L1863.86,1678.2z M1857.5,1680.95l-0.88,2.4
				l-3.67,0.61l-2.33-1.91v-3.37l0.93-2.38l0.71-0.11c0.09-0.06,0.19-0.11,0.3-0.15c0,0,0.73-0.29,1.53-0.29
				c0.18,0,0.35,0.02,0.51,0.04l1.08-0.08l1.81,1.91V1680.95z"/>
			<linearGradient id="SVGID_41_" gradientUnits="userSpaceOnUse" x1="1850.3632" y1="1688.5757" x2="1856.7839" y2="1688.5757">
				<stop  offset="0" style="stop-color:#FDD39E"/>
				<stop  offset="0.5" style="stop-color:#846245"/>
				<stop  offset="1" style="stop-color:#DFA270"/>
			</linearGradient>
			<path class="st57" d="M1856.78,1684.88v3.05l-3.85,3.37l-1.11,0.98c-0.91-0.4-1.46-0.98-1.46-0.98v-6.41
				C1850.36,1684.88,1853.26,1687.93,1856.78,1684.88z"/>
			<polygon class="st5" points="1850.36,1684.88 1850.36,1691.29 1804.08,1650.85 1804.01,1650.79 1804.01,1644.41 			"/>
			<polygon class="st4" points="1864.69,1678.86 1864.69,1681.01 1856.78,1687.93 1856.78,1684.88 1864.21,1678.47 			"/>
			<linearGradient id="SVGID_42_" gradientUnits="userSpaceOnUse" x1="1804.0082" y1="1646.1736" x2="1802.4698" y2="1646.1736">
				<stop  offset="0" style="stop-color:#FDD39E"/>
				<stop  offset="1" style="stop-color:#846245"/>
			</linearGradient>
			<path class="st58" d="M1804.01,1644.41v6.38c0,0-1.53-1.2-1.54-2.85v-6.38C1802.48,1643.21,1804.01,1644.41,1804.01,1644.41z"/>
			<path class="st3" d="M1907.83,1588.63l-0.85,0.84l-1.2-1.03l-0.31-0.26c0,0-0.88-0.65-2.06,0.23l-0.11,0.09h-0.01l-4.3,3.6
				l-6.66,5.58l-0.09,0.08c-0.18,0.18-0.29,0.51-0.29,1.1v10.37l-4.63,3.78l-0.46-0.39c0,0-0.88-0.65-2.06,0.23l-4.42,3.7l-5.96,5
				l-1.29-1.11l-0.81-0.7l-0.01-0.01l-1.51-1.29c0,0-0.88-0.65-2.06,0.23l-4.42,3.7l-4.66,3.9l-16.51-14.3l-0.91-0.79v-0.57
				l-1.81-1.91l-1.08,0.08c-0.16-0.02-0.33-0.04-0.51-0.04c-0.8,0-1.53,0.29-1.53,0.29c-0.11,0.04-0.21,0.09-0.3,0.15l-0.71,0.11
				l-0.83,2.12l-28.27,24.6c-0.47,0.08-0.82,0.22-0.82,0.22c-0.11,0.04-0.21,0.09-0.3,0.15l-0.71,0.11l-0.66,1.68l-0.81,0.7
				c-1.08,0.94-1.45,1.86-1.44,2.67v6.38c0.01,1.65,1.54,2.85,1.54,2.85l0.08,0.06l46.28,40.44c0,0,0.55,0.58,1.46,0.98l-11.13,9.73
				l-1.57,2.23l-2.05,1.77v-1.77l-51.12-44.88l-5.52-4.84l102.17-88.02L1907.83,1588.63z"/>
			<linearGradient id="SVGID_43_" gradientUnits="userSpaceOnUse" x1="1831.5897" y1="1610.8484" x2="1829.5315" y2="1608.4806">
				<stop  offset="0" style="stop-color:#A47546"/>
				<stop  offset="0.2215" style="stop-color:#9B7046"/>
				<stop  offset="0.5826" style="stop-color:#836145"/>
				<stop  offset="1" style="stop-color:#634E42"/>
			</linearGradient>
			<path class="st59" d="M1882.61,1566.5l-102.17,88.02l-1.92-1.69l8.97-7.41l2.53-2.17l8.54-7.35l7.65-6.57l4.66-4.01l6.02-5.17
				l5.86-5.04l10.16-8.73l5.77-4.97l20.59-17.71l19.81-17.04C1881.13,1565.03,1882.61,1566.5,1882.61,1566.5z"/>
			<path class="st3" d="M1711.51,1781.68v2.48c-0.61-0.54-1.14-1.87-1.14-1.87l0.96-0.77L1711.51,1781.68z"/>
			<path class="st4" d="M1718.28,1753.14v6.27l-4.76,4.08c-1.54-0.21-2.56,0.41-2.56,0.41l0.17-3.66l-0.42-0.32L1718.28,1753.14z"/>
			<path class="st3" d="M1621.36,1344.21c0,17.04-15.86,30.87-35.43,30.87s-35.43-13.83-35.43-30.87
				c0-17.05,15.86-30.88,35.43-30.88c4.33,0,8.48,0.68,12.31,1.92c7.17,2.31,13.25,6.59,17.36,12.08
				C1619.25,1332.19,1621.36,1337.98,1621.36,1344.21z"/>
			<linearGradient id="SVGID_44_" gradientUnits="userSpaceOnUse" x1="1550.4913" y1="1380.6376" x2="1621.3591" y2="1380.6376">
				<stop  offset="0" style="stop-color:#A47144"/>
				<stop  offset="2.210779e-03" style="stop-color:#A57245"/>
				<stop  offset="0.0907" style="stop-color:#D19F6E"/>
				<stop  offset="0.1612" style="stop-color:#F0BE8C"/>
				<stop  offset="0.2045" style="stop-color:#FBCB98"/>
				<stop  offset="0.238" style="stop-color:#F2C08D"/>
				<stop  offset="0.2926" style="stop-color:#DAA672"/>
				<stop  offset="0.35" style="stop-color:#BC8551"/>
				<stop  offset="0.3539" style="stop-color:#BD8652"/>
				<stop  offset="0.5582" style="stop-color:#EABB85"/>
				<stop  offset="0.66" style="stop-color:#FCD19B"/>
				<stop  offset="0.6845" style="stop-color:#FBCA92"/>
				<stop  offset="0.7344" style="stop-color:#FAC085"/>
				<stop  offset="0.8047" style="stop-color:#F9BB7E"/>
				<stop  offset="1" style="stop-color:#F9B97C"/>
			</linearGradient>
			<path class="st60" d="M1621.36,1344.21v13.89l-42.33,36.9l-1.73-1.49l-26.79,23.56v-0.01l-0.02-72.85
				c0,17.04,15.86,30.87,35.43,30.87S1621.36,1361.25,1621.36,1344.21z"/>
			<linearGradient id="SVGID_45_" gradientUnits="userSpaceOnUse" x1="1507.0304" y1="1394.5452" x2="1523.738" y2="1375.3252">
				<stop  offset="0" style="stop-color:#BC8551"/>
				<stop  offset="0.2365" style="stop-color:#E9B682"/>
				<stop  offset="0.3553" style="stop-color:#FBCB98"/>
				<stop  offset="0.4885" style="stop-color:#EFBF8C"/>
				<stop  offset="0.7058" style="stop-color:#D0A06E"/>
				<stop  offset="0.9786" style="stop-color:#A27545"/>
				<stop  offset="1" style="stop-color:#9E7242"/>
			</linearGradient>
			<path class="st61" d="M1530.76,1384.26c0,0.45-0.03,0.9-0.08,1.34c-0.02,0.22-0.06,0.44-0.1,0.65c-0.04,0.22-0.08,0.44-0.14,0.64
				c-0.05,0.21-0.11,0.43-0.18,0.64c-0.07,0.21-0.14,0.41-0.21,0.62c-0.07,0.19-0.15,0.38-0.23,0.57c-0.02,0.05-0.05,0.09-0.07,0.15
				c-0.07,0.16-0.15,0.32-0.23,0.48c-0.12,0.25-0.26,0.5-0.41,0.74c-0.34,0.57-0.74,1.13-1.19,1.65c-0.1,0.11-0.2,0.23-0.3,0.34
				c-0.12,0.14-0.25,0.28-0.39,0.41c-0.1,0.11-0.21,0.21-0.31,0.31c-0.15,0.14-0.29,0.28-0.44,0.4c-0.58,0.51-1.22,0.98-1.9,1.39
				c-0.14,0.08-0.28,0.17-0.41,0.24c-0.15,0.08-0.29,0.17-0.44,0.24c-0.15,0.08-0.31,0.16-0.46,0.23c-0.13,0.07-0.26,0.13-0.39,0.19
				c-0.58,0.27-1.19,0.5-1.82,0.69c-0.22,0.08-0.44,0.14-0.67,0.2c-0.48,0.13-0.97,0.24-1.47,0.32c-0.15,0.03-0.31,0.05-0.47,0.08
				c-0.8,0.11-1.62,0.18-2.46,0.18c-0.28,0-0.56-0.01-0.83-0.02c-0.43-0.02-0.85-0.05-1.27-0.11c-1.08-0.13-2.13-0.36-3.11-0.69
				c-0.18-0.05-0.36-0.11-0.54-0.18c-0.7-0.25-1.39-0.55-2.02-0.9c-0.27-0.15-0.53-0.29-0.79-0.45c-0.03-0.02-0.05-0.03-0.08-0.05
				c-0.26-0.16-0.51-0.32-0.75-0.5c-0.01,0-0.02-0.01-0.02-0.01c-0.24-0.17-0.47-0.34-0.7-0.53c-0.03-0.02-0.06-0.05-0.09-0.08
				c-0.2-0.16-0.4-0.33-0.58-0.51c-0.06-0.05-0.11-0.1-0.17-0.15c-0.18-0.18-0.37-0.35-0.54-0.54c-0.2-0.21-0.39-0.42-0.57-0.64
				c-0.02-0.02-0.04-0.05-0.05-0.07c-0.16-0.19-0.31-0.38-0.44-0.57c-0.07-0.08-0.13-0.16-0.18-0.24c-0.13-0.18-0.25-0.37-0.37-0.55
				c-0.02-0.02-0.02-0.04-0.04-0.06c-0.02-0.04-0.05-0.07-0.06-0.11c-0.09-0.15-0.18-0.29-0.24-0.44c-0.09-0.15-0.17-0.31-0.24-0.46
				c-0.08-0.16-0.15-0.32-0.22-0.48c-0.08-0.19-0.16-0.39-0.23-0.59c-0.08-0.2-0.14-0.4-0.2-0.6c-0.04-0.13-0.08-0.27-0.11-0.41
				c-0.04-0.11-0.07-0.23-0.09-0.35c-0.02-0.08-0.04-0.16-0.05-0.24c-0.03-0.15-0.06-0.28-0.08-0.43c-0.02-0.11-0.03-0.23-0.05-0.34
				c-0.02-0.13-0.03-0.27-0.04-0.4c-0.04-0.34-0.05-0.67-0.05-1.01c0-7.01,6.62-12.7,14.79-12.7c1.16,0,2.29,0.11,3.37,0.34
				l0.63,3.11c-1.19-0.29-2.46-0.44-3.77-0.44c-7.36,0-13.33,4.9-13.33,10.94s5.97,10.94,13.33,10.94c4.45,0,8.4-1.8,10.81-4.55
				c1.58-1.79,2.51-3.99,2.51-6.38c0-1.09-0.2-2.16-0.57-3.15l1.32-1.35C1530.59,1382.05,1530.76,1383.13,1530.76,1384.26z"/>
			<linearGradient id="SVGID_46_" gradientUnits="userSpaceOnUse" x1="1504.658" y1="1424.5177" x2="1487.2628" y2="1404.507">
				<stop  offset="0" style="stop-color:#D9A571"/>
				<stop  offset="0.1453" style="stop-color:#C99663"/>
				<stop  offset="0.4359" style="stop-color:#B38251"/>
				<stop  offset="0.7229" style="stop-color:#A57746"/>
				<stop  offset="1" style="stop-color:#A17443"/>
			</linearGradient>
			<path class="st62" d="M1515.65,1414.89l-4.59,2.66l-8.29,4.81l-14.08,8.17c-3.32,1.53-4.69-0.81-4.69-0.81
				c-4.04-6.85-6.86-9.94-8.81-11.18c-0.25-0.16-0.48-0.29-0.7-0.39c-1.91-0.89-2.78,0.2-3.06,0.7c0.2-0.4,0.7-1.23,1.57-1.93
				l2.2-1.88l24.99-21.46c0.34-0.31,0.68-0.55,1.02-0.71c0.59-0.29,1.16-0.38,1.65-0.34c1.11,0.05,1.9,0.64,1.9,0.64
				c8.23,6.21,11.92,15.38,11.92,15.38C1518.55,1413.54,1515.65,1414.89,1515.65,1414.89z"/>
			<path class="st63" d="M1530.19,1409.93l-0.65-0.23l0-9.99c0,0.01,0-0.01,0,0c0.05,0.12,0.1,0.25,0.14,0.39
				c0.08,0.23,0.14,0.47,0.2,0.73c0.03,0.17,0.06,0.34,0.08,0.51c0.05,0.27,0.08,0.56,0.11,0.86c0.02,0.32,0.04,0.66,0.04,1.01v0.09
				L1530.19,1409.93z"/>
			<path class="st64" d="M1522.7,1375.96c-0.24-0.11-0.47-0.21-0.71-0.31c-0.6-0.24-1.22-0.44-1.87-0.6
				c-0.05-0.02-0.1-0.02-0.15-0.04l-0.63-3.11v-0.01l1.07-0.14l1.55-0.19l0.19,1.17l0.14,0.83L1522.7,1375.96z"/>
			<path class="st64" d="M1530.59,1378.36l-0.31,2.59l-0.01,0.04v0.01l-1.32,1.35c-0.14-0.39-0.31-0.77-0.5-1.13l0.04-0.05
				l0.57-0.75v-0.01l0.64-0.86L1530.59,1378.36z"/>
			<path class="st4" d="M1529.06,1368.1v7.41l-2.97-2.5l-0.02-0.02c-0.11-0.1-0.25-0.18-0.4-0.21c-0.83-0.22-1.81,0.72-2.18,2.1
				c-0.14,0.5-0.17,0.99-0.12,1.42v0.01c-0.22-0.12-0.44-0.23-0.67-0.34l-0.4-2.4l-0.15-0.83l-0.19-1.17l2.23-1.94l3.14-2.72
				C1527.33,1366.91,1529.13,1365.25,1529.06,1368.1z"/>
			<path class="st4" d="M1536.23,1373.99l-4.67,3.63l-0.96,0.75l-0.31,2.59l-0.01,0.04v0.01c0.32,1.04,0.49,2.13,0.49,3.25v17.72
				l3.54-3.11l-1.74-1.38l-0.03-0.02c-0.78-0.51-1.01-2.25-0.51-4.15c0.56-2.1,1.81-3.57,2.8-3.31c0.13,0.04,0.25,0.1,0.36,0.19
				l0.09,0.08l1.71,1.36l0.02,0.02c0.53,0.31,0.82,1.16,0.82,2.24c0,0.59-0.08,1.25-0.27,1.93c-0.02,0.08-0.05,0.16-0.07,0.24
				l0.45-0.4l0.21-19.03C1538.24,1372.27,1536.23,1373.99,1536.23,1373.99z M1537.36,1384.48c-0.56,2.1-1.81,3.58-2.8,3.31
				c-0.1-0.02-0.2-0.07-0.28-0.13c-0.02-0.02-0.04-0.03-0.06-0.05l-1.85-1.47l-0.03-0.02c-0.78-0.51-1.01-2.25-0.51-4.15
				c0.56-2.1,1.81-3.57,2.8-3.31c0.13,0.04,0.25,0.1,0.36,0.19l0.09,0.08l1.71,1.36l0.02,0.02c0.53,0.31,0.82,1.16,0.82,2.24
				C1537.63,1383.14,1537.54,1383.8,1537.36,1384.48z"/>
			<linearGradient id="SVGID_47_" gradientUnits="userSpaceOnUse" x1="1501.1901" y1="1402.2499" x2="1530.7616" y2="1402.2499">
				<stop  offset="0" style="stop-color:#DFA370"/>
				<stop  offset="0.0176" style="stop-color:#E2A874"/>
				<stop  offset="0.1333" style="stop-color:#F5C18E"/>
				<stop  offset="0.2045" style="stop-color:#FBCB98"/>
				<stop  offset="0.3087" style="stop-color:#F2C08D"/>
				<stop  offset="0.4786" style="stop-color:#DAA672"/>
				<stop  offset="0.657" style="stop-color:#BC8551"/>
				<stop  offset="0.7872" style="stop-color:#AF7D4A"/>
				<stop  offset="1" style="stop-color:#9E7242"/>
			</linearGradient>
			<path class="st65" d="M1530.76,1384.26v24.64c0,0-0.07,0.68-0.57,1.03l-0.09-6.64v-0.09c0-0.35-0.02-0.69-0.04-1.01
				c-0.02-0.3-0.06-0.58-0.11-0.86c-0.02-0.18-0.05-0.34-0.08-0.51c-0.06-0.26-0.12-0.5-0.2-0.73c-0.04-0.14-0.08-0.27-0.14-0.39
				l0,0c-0.36-0.89-0.9-1.52-1.59-1.7c-2.19-0.59-5.13,3.25-6.55,8.58c-0.53,1.97-0.77,3.86-0.77,5.49v7.49c0,0-3.85,1.52-9.57,0
				v-2.02l4.59-2.66c0,0,2.9-1.35,1.01-6.34c0,0-3.68-9.17-11.92-15.38c0,0-0.79-0.58-1.9-0.64c-0.5-0.03-1.06,0.05-1.65,0.34v-8.61
				c0,0.34,0.02,0.67,0.05,1.01c0.01,0.13,0.02,0.27,0.04,0.4c0.02,0.11,0.03,0.23,0.05,0.34c0.02,0.15,0.05,0.28,0.08,0.43
				c0.01,0.08,0.03,0.16,0.05,0.24c0.02,0.12,0.05,0.24,0.09,0.35c0.03,0.14,0.07,0.28,0.11,0.41c0.06,0.2,0.12,0.4,0.2,0.6
				c0.07,0.2,0.15,0.4,0.23,0.59c0.07,0.16,0.14,0.32,0.22,0.48c0.07,0.15,0.15,0.31,0.24,0.46c0.07,0.15,0.15,0.3,0.24,0.44
				c0.02,0.04,0.04,0.07,0.06,0.11c0.02,0.02,0.02,0.04,0.04,0.06c0.11,0.18,0.24,0.37,0.37,0.55c0.05,0.08,0.11,0.17,0.18,0.24
				c0.13,0.19,0.28,0.38,0.44,0.57c0.02,0.02,0.03,0.05,0.05,0.07c0.18,0.21,0.37,0.43,0.57,0.64c0.18,0.19,0.36,0.37,0.54,0.54
				c0.05,0.05,0.11,0.11,0.17,0.15c0.18,0.18,0.38,0.34,0.58,0.51c0.03,0.03,0.06,0.05,0.09,0.08c0.22,0.18,0.46,0.36,0.7,0.53
				c0,0,0.01,0.01,0.02,0.01c0.24,0.18,0.49,0.34,0.75,0.5c0.02,0.02,0.05,0.03,0.08,0.05c0.26,0.16,0.52,0.31,0.79,0.45
				c0.64,0.34,1.32,0.64,2.02,0.9c0.18,0.07,0.35,0.13,0.54,0.18c0.99,0.33,2.04,0.56,3.11,0.69c0.42,0.05,0.84,0.09,1.27,0.11
				c0.28,0.02,0.56,0.02,0.83,0.02c0.83,0,1.66-0.06,2.46-0.18c0.16-0.02,0.32-0.05,0.47-0.08c0.5-0.08,0.99-0.19,1.47-0.32
				c0.23-0.06,0.45-0.12,0.67-0.2c0.63-0.19,1.24-0.42,1.82-0.69c0.13-0.06,0.26-0.12,0.39-0.19c0.15-0.07,0.31-0.15,0.46-0.23
				c0.15-0.08,0.3-0.16,0.44-0.24c0.14-0.08,0.28-0.16,0.41-0.24c0.68-0.41,1.32-0.88,1.9-1.39c0.15-0.12,0.3-0.26,0.44-0.4
				c0.11-0.1,0.21-0.2,0.31-0.31c0.14-0.14,0.27-0.28,0.39-0.41c0.1-0.11,0.2-0.22,0.3-0.34c0.44-0.52,0.84-1.07,1.19-1.65
				c0.15-0.24,0.29-0.49,0.41-0.74c0.08-0.16,0.16-0.32,0.23-0.48c0.02-0.05,0.05-0.1,0.07-0.15c0.08-0.19,0.16-0.38,0.23-0.57
				c0.08-0.21,0.15-0.41,0.21-0.62c0.06-0.21,0.12-0.42,0.18-0.64c0.05-0.21,0.1-0.42,0.14-0.64c0.04-0.21,0.08-0.43,0.1-0.65
				C1530.73,1385.15,1530.76,1384.71,1530.76,1384.26z"/>
			<path class="st63" d="M1474.48,1418.15l-1.52,1.25c-2.84,2.44-1.65-0.32-1.65-0.32l0.11-0.23
				C1471.7,1418.35,1472.57,1417.27,1474.48,1418.15z"/>
			<path class="st3" d="M2096.59,2308.57l-3.77,3.05c0,0-1.55,1.17-2.49,3.7l-56.43-49.43c-2.46-7.23-6.92-14.98-10.78-20.95
				L2096.59,2308.57z"/>
			<linearGradient id="SVGID_48_" gradientUnits="userSpaceOnUse" x1="2057.8564" y1="2302.5002" x2="2065.6733" y2="2293.5081">
				<stop  offset="0" style="stop-color:#FDD49E"/>
				<stop  offset="0.3" style="stop-color:#FDD49E"/>
				<stop  offset="0.323" style="stop-color:#F9CF9A"/>
				<stop  offset="0.6193" style="stop-color:#C89B68"/>
				<stop  offset="0.8553" style="stop-color:#AE7F4F"/>
				<stop  offset="1" style="stop-color:#A47546"/>
			</linearGradient>
			<path class="st66" d="M2090.33,2315.32c-0.41,1.1-0.7,2.46-0.7,4.09v10.71l-49.97-43.8l-4.63-16.56
				c-0.31-1.26-0.69-2.56-1.13-3.87L2090.33,2315.32z"/>
			<path class="st5" d="M2092.33,2366.07l-0.64,1.27l-38.72-33.41l-13.31-47.61l49.97,43.8v31.13c0,0-0.03,2.57,1.6,3.96
				L2092.33,2366.07z"/>
			<linearGradient id="SVGID_49_" gradientUnits="userSpaceOnUse" x1="2070.9365" y1="2352.7095" x2="2072.6218" y2="2350.7708">
				<stop  offset="0" style="stop-color:#A47546"/>
				<stop  offset="0.2745" style="stop-color:#C79A67"/>
				<stop  offset="0.5436" style="stop-color:#E4B985"/>
				<stop  offset="0.792" style="stop-color:#F6CD98"/>
				<stop  offset="1" style="stop-color:#FDD49E"/>
			</linearGradient>
			<polygon class="st67" points="2052.97,2333.93 2091.69,2367.35 2090.58,2369.56 2054.14,2338.11 			"/>
			<path class="st3" d="M2634.45,2408.02v-16.98l-1.06-2.03l-9.96-9l-9.66,8.34l-1.26-9.69c0-0.02,0-0.03-0.01-0.04l-0.28-2.17
				c-0.27-2.19-1.33-3.9-2.3-5.04v-0.01l9.24-8.06l24.22,21.05c0,0,2.93,2.92,6.44,0l32-28.06c1.35-1.19,1.32-3.4,1.32-3.4v-5.43
				c-0.03-0.67-0.34-1.42-1.11-2.21l-0.14-0.12v-0.89l-0.41-0.43l20.08-17.46c1.93-1.67,1.59-5.84,1.59-5.84l-0.01,0.02
				c0.08-1.39-0.86-2.43-0.86-2.43l-15.41-13.81l11.07-9.65l33.18,29.22L2634.45,2408.02z"/>
			<polygon class="st19" points="2642.13,2416.31 2739.82,2331.53 2744.79,2335.91 2744.79,2343.86 2651.8,2424.92 			"/>
			<linearGradient id="SVGID_50_" gradientUnits="userSpaceOnUse" x1="2690.51" y1="2374.3887" x2="2682.9961" y2="2365.7449">
				<stop  offset="0" style="stop-color:#DFA370"/>
				<stop  offset="0.2811" style="stop-color:#D49A67"/>
				<stop  offset="0.7381" style="stop-color:#B78453"/>
				<stop  offset="1" style="stop-color:#A47546"/>
			</linearGradient>
			<polygon class="st68" points="2739.81,2331.53 2642.13,2416.32 2634.45,2409.48 2634.45,2408.02 2731.14,2323.89 			"/>
			<linearGradient id="SVGID_51_" gradientUnits="userSpaceOnUse" x1="2745.1892" y1="2326.7271" x2="2737.7778" y2="2318.2014">
				<stop  offset="0" style="stop-color:#DFA370"/>
				<stop  offset="0.2811" style="stop-color:#D49A67"/>
				<stop  offset="0.7381" style="stop-color:#B78453"/>
				<stop  offset="1" style="stop-color:#A47546"/>
			</linearGradient>
			<path class="st69" d="M2744.73,2327.1l-0.82,0.73l-8.56-7.53l4.86-4.18C2740.21,2316.13,2744.22,2320,2744.73,2327.1z"/>
			<path class="st19" d="M2744.79,2328.62l-0.88-0.78l0.82-0.73C2744.77,2327.59,2744.79,2328.1,2744.79,2328.62z"/>
			<polygon class="st3" points="2740.21,2316.13 2707.61,2287.53 2704.89,2288.63 2702.12,2291.04 2735.35,2320.31 			"/>
			<polygon class="st20" points="2643.39,2378.22 2643.39,2384.4 2619.17,2363.36 2623.07,2359.95 			"/>
			<linearGradient id="SVGID_52_" gradientUnits="userSpaceOnUse" x1="2643.3936" y1="2381.8967" x2="2650.0056" y2="2381.8967">
				<stop  offset="0" style="stop-color:#FDD49E"/>
				<stop  offset="1" style="stop-color:#DFA370"/>
			</linearGradient>
			<path class="st70" d="M2650.01,2378.09l-0.17,6.31c-3.51,2.92-6.44,0-6.44,0v-6.18
				C2646.94,2381.32,2650.01,2378.09,2650.01,2378.09z"/>
			<polygon class="st19" points="2681.83,2350.16 2681.83,2356.34 2649.84,2384.4 2650.01,2378.09 			"/>
			<path class="st3" d="M2682.05,2345.3l-0.14-0.12v2.44l-0.88,2.4l-3.67,0.6l-2.33-1.9v-1.15c-0.31-0.05-0.58-0.13-0.83-0.23
				c-0.02-0.02-0.04-0.02-0.06-0.02c-0.1-0.05-0.19-0.09-0.28-0.14c-0.1-0.05-0.18-0.1-0.27-0.15c-0.37-0.21-0.58-0.41-0.58-0.41
				l-14.62-13.06l-15.73,13.55l-1.79-1.58v-1.09l-17.78,15.5l20.32,18.27c3.55,3.1,6.61-0.13,6.61-0.13l31.83-27.93
				c0,0,1.25-0.96,1.32-2.38v-0.27C2683.13,2346.84,2682.82,2346.09,2682.05,2345.3z M2649.84,2374.68l-0.88,2.4l-3.67,0.61
				l-2.33-1.91v-3.37l0.93-2.38l0.71-0.11c0.09-0.06,0.19-0.11,0.3-0.15c0,0,0.73-0.29,1.53-0.29c0.18,0,0.35,0.02,0.51,0.04
				l1.08-0.08l1.81,1.91V2374.68z"/>
			<linearGradient id="SVGID_53_" gradientUnits="userSpaceOnUse" x1="2681.835" y1="2352.0581" x2="2683.1589" y2="2352.0581">
				<stop  offset="0" style="stop-color:#DFA370"/>
				<stop  offset="0.2811" style="stop-color:#D49A67"/>
				<stop  offset="0.7381" style="stop-color:#B78453"/>
				<stop  offset="1" style="stop-color:#A47546"/>
			</linearGradient>
			<path class="st71" d="M2683.16,2347.78v5.17c0,0,0.02,2.21-1.32,3.4v-6.18C2681.83,2350.16,2683.08,2349.2,2683.16,2347.78z"/>
			<path class="st3" d="M2690.05,2326.27c-0.66,3.54-4.32,6.25-8.73,6.25c-4.4,0-8.07-2.71-8.73-6.25c0.66-3.54,4.33-6.25,8.73-6.25
				C2685.74,2320.02,2689.4,2322.73,2690.05,2326.27z"/>
			<path class="st4" d="M2464.33,2580.09v8.25l-28.44,24.79c0,0,0.35-11.31-2.8-9.54l2.4-2.1c0,0,2.54-2.21,2.54-7.32l21.36-18.11
				l1.29,1.35v0.01l0.7-0.45l0.82-0.53l0.02,0.91l0.05,1.73l1.42,1.49L2464.33,2580.09z"/>
			<polygon class="st1" points="2468.36,2584.83 2464.33,2588.34 2464.33,2580.09 2465.29,2579.38 2465.37,2582.29 2466.61,2583.59 
				2468.29,2582.27 			"/>
			<path class="st5" d="M2458.86,2574.2l-0.45-0.44l-1.97-1.88l-0.02-8.85v-0.02l-0.02-7.67l0.02,0.01c0.31,0.25,0.63,0.58,0.93,1
				c0.55,0.77,1.02,1.83,1.07,3.25l0.21,6.87L2458.86,2574.2z"/>
			<linearGradient id="SVGID_54_" gradientUnits="userSpaceOnUse" x1="2457.1096" y1="2574.8958" x2="2458.3149" y2="2573.509">
				<stop  offset="0" style="stop-color:#A47546"/>
				<stop  offset="0.277" style="stop-color:#C79A68"/>
				<stop  offset="0.5451" style="stop-color:#E4B885"/>
				<stop  offset="0.7927" style="stop-color:#F6CC98"/>
				<stop  offset="1" style="stop-color:#FDD39E"/>
			</linearGradient>
			<path class="st72" d="M2459.39,2576.05l-0.48,0.41l-1.48-1.43c0,0-0.98-0.9-0.99-3.15l1.97,1.88l0.45,0.44l0.04,1.34
				L2459.39,2576.05z"/>
			<linearGradient id="SVGID_55_" gradientUnits="userSpaceOnUse" x1="2451.1963" y1="2583.1621" x2="2443.4536" y2="2574.2551">
				<stop  offset="0" style="stop-color:#DFA370"/>
				<stop  offset="0.2811" style="stop-color:#D49A67"/>
				<stop  offset="0.7381" style="stop-color:#B78453"/>
				<stop  offset="1" style="stop-color:#A47546"/>
			</linearGradient>
			<path class="st73" d="M2458.91,2576.46l-20.88,17.71l-0.01-15.19l18.4-15.96v0.02l0.02,8.85c0.01,2.25,0.99,3.15,0.99,3.15
				L2458.91,2576.46z"/>
			<path class="st3" d="M2440.03,2566.36c0,0.8-0.49,1.54-1.3,2.12c-0.21,0.15-0.45,0.29-0.71,0.41v-5.07
				C2439.25,2564.43,2440.03,2565.34,2440.03,2566.36z"/>
			<linearGradient id="SVGID_56_" gradientUnits="userSpaceOnUse" x1="2438.0146" y1="2570.6538" x2="2440.0273" y2="2570.6538">
				<stop  offset="0" style="stop-color:#FDD49E"/>
				<stop  offset="1" style="stop-color:#DFA370"/>
			</linearGradient>
			<path class="st74" d="M2440.03,2566.36v6.06c0,1.02-0.78,1.92-2.01,2.53l-0.01-6.06c0.26-0.12,0.5-0.26,0.71-0.41
				C2439.54,2567.89,2440.03,2567.16,2440.03,2566.36z"/>
			<path class="st3" d="M2440.03,2572.42v-6.06c0-1.02-0.78-1.93-2.01-2.53l-0.01-20.4l5.01-3.49c0.29,0.68,0.64,1.26,1.06,1.68
				h0.01l0.03,0.03l0.37,0.33l0.07,0.05l1.93,1.71c0.3,0.3,0.64,0.51,1.01,0.65v0.01l1.08,1.25l0.8,2.45l0.67,8.05l1.85,1.32
				l3.44-2.81c0,0,0.47,0.2,1.06,0.69l0.02,7.67l-18.4,15.96v-4.03C2439.25,2574.34,2440.03,2573.44,2440.03,2572.42z"/>
			<path class="st4" d="M2435.89,2613.13c-0.09-0.87-0.38-1.55-0.83-1.85h-0.01l-2.2-1.93c-0.12-0.1-0.26-0.18-0.41-0.21
				c-0.9-0.24-1.99,0.78-2.69,2.4l-0.52-0.44v-0.01c0-0.23,0.08-3.86,2.88-6.64l0.98-0.86
				C2436.25,2601.82,2435.89,2613.13,2435.89,2613.13z"/>
			<polygon class="st5" points="2468.36,2584.83 2464.33,2588.34 2464.33,2580.09 2465.29,2579.38 2465.37,2582.29 2466.61,2583.59 
				2468.29,2582.27 			"/>
		</g>
	</g>
</g>
</svg>
